Spatial resampling for #TidyTuesday and the #30DayMapChallenge | Julia Silge
…
Explore data

Geographic data is special when it comes to, well, basically everything! This includes modeling and especially evaluating models. This week’s #TidyTuesday is all about exploring 
spatial data for the 
#30DayMapChallenge this month, and especially the spData and spDataLarge packages along with the book 
Geocomputation with R.

Let’s use the dataset of landslides (plus not-landslide locations) in Southern Ecuador.

data("lsl", package = "spDataLarge")
landslides <- as_tibble(lsl)
landslides

## # A tibble: 350 × 8
##          x        y lslpts slope    cplan     cprof  elev log10_carea
##      <dbl>    <dbl> <fct>  <dbl>    <dbl>     <dbl> <dbl>       <dbl>
##  1 715078. 9558647. FALSE   37.4  0.0205   0.00866  2477.        2.61
##  2 713748. 9558047. FALSE   41.7 -0.0241   0.00679  2486.        3.07
##  3 712508. 9558887. FALSE   20.0  0.0390   0.0147   2142.        2.29
##  4 713998. 9558187. FALSE   45.8 -0.00632  0.00435  2391.        3.83
##  5 714308. 9557307. FALSE   41.7  0.0423  -0.0202   2570.        2.70
##  6 713488. 9558117. FALSE   52.9  0.0323   0.00703  2418.        2.48
##  7 714948. 9558347. FALSE   51.9  0.0399   0.000791 2546.        3.15
##  8 714678. 9560357. FALSE   38.5  0.0164   0.0299   1932.        3.26
##  9 714368. 9560287. FALSE   24.1 -0.0188  -0.00956  2059.        3.20
## 10 712528. 9559217. FALSE   50.5  0.0142   0.0151   1973.        2.60
## # … with 340 more rows
…
