Text classification with tidy data principles | Julia Silge
…
library(tidyverse)
library(gutenbergr)

titles <- c(
  "The War of the Worlds",
  "Pride and Prejudice"
)
books <- gutenberg_works(title %in% titles) %>%
  gutenberg_download(meta_fields = "title") %>%
  mutate(document = row_number())

books

## # A tibble: 19,504 x 4
##    gutenberg_id text                                 title         document
##           <int> <chr>                                <chr>            <int>
##  1           36 The War of the Worlds                The War of t…        1
##  2           36 ""                                   The War of t…        2
##  3           36 by H. G. Wells [1898]                The War of t…        3
##  4           36 ""                                   The War of t…        4
##  5           36 ""                                   The War of t…        5
##  6           36 "     But who shall dwell in these … The War of t…        6
##  7           36 "     inhabited? .  .  .  Are we or… The War of t…        7
##  8           36 "     World? .  .  .  And how are a… The War of t…        8
##  9           36 "          KEPLER (quoted in The An… The War of t…        9
## 10           36 ""                                   The War of t…       10
## # ... with 19,494 more rows

We have the text data now, and let’s frame the kind of prediction problem we are going to work on. Imagine that we take each book and cut it up into lines, like strips of paper (✨ confetti ✨) with an individual line on each paper. Let’s train a model that can take an individual line and give us a probability that this book comes from Pride and Prejudice vs. from The War of the Worlds. As a first step, let’s transform our text data into a tidy format.

library(tidytext)

tidy_books <- books %>%
  unnest_tokens(word, text) %>%
  group_by(word) %>%
  filter(n() > 10) %>%
  ungroup()

tidy_books

## # A tibble: 159,707 x 4
##    gutenberg_id title                 document word 
##           <int> <chr>                    <int> <chr>
##  1           36 The War of the Worlds        1 the  
##  2           36 The War of the Worlds        1 war  
##  3           36 The War of the Worlds        1 of   
##  4           36 The War of the Worlds        1 the  
##  5           36 The War of the Worlds        3 by   
##  6           36 The War of the Worlds        6 but  
##  7           36 The War of the Worlds        6 who  
##  8           36 The War of the Worlds        6 shall
##  9           36 The War of the Worlds        6 in   
## 10           36 The War of the Worlds        6 these
## # ... with 159,697 more rows
…
intercept <- coefs %>%
  filter(term == "(Intercept)") %>%
  pull(estimate)

classifications <- tidy_books %>%
  inner_join(test_data) %>%
  inner_join(coefs, by = c("word" = "term")) %>%
  group_by(document) %>%
  summarize(score = sum(estimate)) %>%
  mutate(probability = plogis(intercept + score))

classifications

## # A tibble: 4,004 x 3
##    document  score probability
##       <int>  <dbl>       <dbl>
##  1        1 -1.83      0.170  
##  2        8 -1.02      0.317  
##  3       19  0.502     0.679  
##  4       21 -1.83      0.170  
##  5       25 -0.983     0.324  
##  6       28 -1.78      0.178  
##  7       30 -5.29      0.00643
##  8       31 -3.03      0.0584 
##  9       48  2.89      0.958  
## 10       49 -2.88      0.0675 
## # ... with 3,994 more rows
…
