Empirical Bayes for #TidyTuesday Doctor Who episodes | Julia Silge
…
dr_who_joined <-
  drwho_episodes |> 
  left_join(drwho_writers) |> 
  mutate(rating = as.numeric(rating)) |>
  group_by(writer) |>
  summarize(n = n(), 
            std_var = var(rating) / n,
            rating = mean(rating)) 

dr_who_joined

## # A tibble: 40 × 4
##    writer                               n std_var rating
##    <chr>                            <int>   <dbl>  <dbl>
##  1 Catherine Tregenna                   1  NA       81  
##  2 Charlene James                       1  NA       78  
##  3 Chris Chibnall                      29   0.419   80.7
##  4 Ed Hime                              2   2.25    78.5
##  5 Ella Road                            1  NA       76  
##  6 Frank Cottrell-Boyce                 2   0       83  
##  7 Gareth Roberts                       5   0.14    86.8
##  8 Gareth Roberts and Steven Moffat     1  NA       83  
##  9 Helen Raynor                         4   0.417   86.5
## 10 James Moran                          1  NA       87  
## # ℹ 30 more rows
…
the shrinkage factor from the variance of the prior and the variance for each writer

the “shrunk” rating from the measured rating, the mean of the prior, and that shrinkage factor

dr_who_empirical <-
    dr_who_joined |> 
    mutate(
        shrinkage = prior_var / (prior_var + std_var),
        rating_shrunk = shrinkage * rating + (1 - shrinkage) * prior_mu
    )

dr_who_empirical

## # A tibble: 40 × 6
##    writer                               n std_var rating shrinkage rating_shrunk
##    <chr>                            <int>   <dbl>  <dbl>     <dbl>         <dbl>
##  1 Catherine Tregenna                   1  NA       81      NA              NA  
##  2 Charlene James                       1  NA       78      NA              NA  
##  3 Chris Chibnall                      29   0.419   80.7     0.950          80.8
##  4 Ed Hime                              2   2.25    78.5     0.778          79.6
##  5 Ella Road                            1  NA       76      NA              NA  
##  6 Frank Cottrell-Boyce                 2   0       83       1              83  
##  7 Gareth Roberts                       5   0.14    86.8     0.983          86.7
##  8 Gareth Roberts and Steven Moffat     1  NA       83      NA              NA  
##  9 Helen Raynor                         4   0.417   86.5     0.950          86.3
## 10 James Moran                          1  NA       87      NA              NA  
## # ℹ 30 more rows
…
