Use Docker to deploy a model for #TidyTuesday LEGO sets | Julia Silge
…
## # A tibble: 2 × 4
##   .metric .estimator .estimate .config             
##   <chr>   <chr>          <dbl> <chr>               
## 1 rmse    standard       0.681 Preprocessor1_Model1
## 2 rsq     standard       0.176 Preprocessor1_Model1

Since this is a linear model, let’s look at the coefficients. What words are associated with higher numbers of LEGO parts?

final_fitted %>%
    extract_workflow() %>%
    tidy() %>%
    arrange(-estimate)

## # A tibble: 201 × 2
##    term                 estimate
##    <chr>                   <dbl>
##  1 Bias                    1.71 
##  2 tfidf_name_challenge    0.207
##  3 tfidf_name_castle       0.175
##  4 tfidf_name_cargo        0.161
##  5 tfidf_name_calendar     0.157
##  6 tfidf_name_hogwarts     0.155
##  7 tfidf_name_bucket       0.154
##  8 tfidf_name_shuttle      0.153
##  9 tfidf_name_house        0.151
## 10 tfidf_name_mech         0.150
## # … with 191 more rows
## # ℹ Use `print(n = ...)` to see more rows
…
