Tune and interpret decision trees for #TidyTuesday wind turbines | Lucas Bagge
…
Explore data

Our modeling goal is to predict the capacity of wind turbines in Canada 
based on other characteristics of the turbines from this week’s #TidyTuesday dataset. Simon Couch outlined this week 
how to use stacks for ensembling with this dataset, but here let’s take a more straightforward approach.

Let’s start by reading in the data.

library(tidyverse)

turbines <- read_csv("https://raw.githubusercontent.com/rfordatascience/tidytuesday/master/data/2020/2020-10-27/wind-turbine.csv")
turbines

## # A tibble: 6,698 x 15
##    objectid province_territ… project_name total_project_c… turbine_identif…
##       <dbl> <chr>            <chr>                   <dbl> <chr>           
##  1        1 Alberta          Optimist Wi…             0.9  OWE1            
##  2        2 Alberta          Castle Rive…            44    CRW1            
##  3        3 Alberta          Waterton Wi…             3.78 WWT1            
##  4        4 Alberta          Waterton Wi…             3.78 WWT2            
##  5        5 Alberta          Waterton Wi…             3.78 WWT3            
##  6        6 Alberta          Waterton Wi…             3.78 WWT4            
##  7        7 Alberta          Cowley North            19.5  CON1            
##  8        8 Alberta          Cowley North            19.5  CON2            
##  9        9 Alberta          Cowley North            19.5  CON3            
## 10       10 Alberta          Cowley North            19.5  CON4            
## # … with 6,688 more rows, and 10 more variables:
## #   turbine_number_in_project <chr>, turbine_rated_capacity_k_w <dbl>,
## #   rotor_diameter_m <dbl>, hub_height_m <dbl>, manufacturer <chr>,
## #   model <chr>, commissioning_date <chr>, latitude <dbl>, longitude <dbl>,
## #   notes <chr>
…
We need a set of possible parameter values to try out for the decision tree.

tree_grid <- grid_regular(cost_complexity(), tree_depth(), min_n(), levels = 4)

tree_grid

## # A tibble: 64 x 3
##    cost_complexity tree_depth min_n
##              <dbl>      <int> <int>
##  1    0.0000000001          1     2
##  2    0.0000001             1     2
##  3    0.0001                1     2
##  4    0.1                   1     2
##  5    0.0000000001          5     2
##  6    0.0000001             5     2
##  7    0.0001                5     2
##  8    0.1                   5     2
##  9    0.0000000001         10     2
## 10    0.0000001            10     2
## # … with 54 more rows
…
Notice that we aren’t tuning a workflow() here, as I have often shown how to do. Instead we are tuning the model specification (accompanied by a formula preprocessor); this is so we can use the bare model in some model evaluation activities.

Evaluate model

Now let’s check out how we did. We can collect or visualize the metrics.

collect_metrics(tree_rs)

## # A tibble: 256 x 9
##    cost_complexity tree_depth min_n .metric .estimator    mean     n std_err
##              <dbl>      <int> <int> <chr>   <chr>        <dbl> <int>   <dbl>
##  1    0.0000000001          1     2 mae     standard   386.       10  1.50  
##  2    0.0000000001          1     2 mape    standard    27.7      10  1.30  
##  3    0.0000000001          1     2 rmse    standard   508.       10  1.44  
##  4    0.0000000001          1     2 rsq     standard     0.303    10  0.0134
##  5    0.0000001             1     2 mae     standard   386.       10  1.50  
##  6    0.0000001             1     2 mape    standard    27.7      10  1.30  
##  7    0.0000001             1     2 rmse    standard   508.       10  1.44  
##  8    0.0000001             1     2 rsq     standard     0.303    10  0.0134
##  9    0.0001                1     2 mae     standard   386.       10  1.50  
## 10    0.0001                1     2 mape    standard    27.7      10  1.30  
## # … with 246 more rows, and 1 more variable: .config <chr>
…
