Which #TidyTuesday post offices are in Hawaii? | Julia Silge
…
Our modeling goal is to predict whether a post office is in Hawaii or not 
based on the name of the office in this week’s #TidyTuesday dataset.

Let’s start by reading in the data.

library(tidyverse)

post_offices <- read_csv("https://raw.githubusercontent.com/rfordatascience/tidytuesday/master/data/2021/2021-04-13/post_offices.csv")

How many post offices are there in each state?

post_offices %>%
  count(state, sort = TRUE)

## # A tibble: 53 x 2
##    state     n
##    <chr> <int>
##  1 PA     8534
##  2 TX     7772
##  3 KY     7432
##  4 VA     7085
##  5 NC     6547
##  6 MO     6232
##  7 NY     6111
##  8 TN     6025
##  9 GA     5754
## 10 OH     5537
## # … with 43 more rows
…
We also are upsampling this very imbalanced data set via step_smote() from the 
themis package. The results of this data preprocessing show us the subword features.

po_rec %>%
  prep() %>%
  bake(new_data = NULL)

## # A tibble: 248,932 x 201
##    `tf_name_-` tf_name_. `tf_name_'` `tf_name_'S` `tf_name_/` `tf_name_&`
##          <dbl>     <dbl>       <dbl>        <dbl>       <dbl>       <dbl>
##  1     -0.0203   -0.0184     -0.0346       -0.165     -0.0102    -0.00567
##  2     -0.0203  102.         -0.0346       -0.165     -0.0102    -0.00567
##  3     -0.0203   -0.0184     -0.0346       -0.165     -0.0102    -0.00567
##  4     -0.0203   -0.0184     -0.0346       -0.165     -0.0102    -0.00567
##  5     -0.0203   -0.0184     -0.0346       -0.165     -0.0102    -0.00567
##  6     -0.0203   -0.0184     -0.0346       -0.165     -0.0102    -0.00567
##  7     -0.0203   -0.0184     -0.0346       -0.165     -0.0102    -0.00567
##  8     -0.0203   -0.0184     -0.0346       -0.165     -0.0102    -0.00567
##  9     -0.0203   -0.0184     -0.0346       -0.165     -0.0102    -0.00567
## 10     -0.0203   -0.0184     -0.0346       -0.165     -0.0102    -0.00567
## # … with 248,922 more rows, and 195 more variables: tf_name_` <dbl>,
## #   tf_name_▁ <dbl>, tf_name_▁A <dbl>, tf_name_▁AL <dbl>, tf_name_▁B <dbl>,
## #   tf_name_▁BE <dbl>, tf_name_▁BL <dbl>, tf_name_▁BR <dbl>, tf_name_▁C <dbl>,
## #   tf_name_▁CENT <dbl>, tf_name_▁CH <dbl>, tf_name_▁CITY <dbl>,
## #   tf_name_▁CL <dbl>, tf_name_▁CO <dbl>, tf_name_▁CREEK <dbl>,
## #   tf_name_▁D <dbl>, tf_name_▁E <dbl>, tf_name_▁EL <dbl>, tf_name_▁F <dbl>,
## #   tf_name_▁G <dbl>, tf_name_▁GRO <dbl>, tf_name_▁GROVE <dbl>,
## #   tf_name_▁H <dbl>, tf_name_▁HILL <dbl>, tf_name_▁J <dbl>, tf_name_▁K <dbl>,
## #   tf_name_▁L <dbl>, tf_name_▁LAKE <dbl>, tf_name_▁LE <dbl>, tf_name_▁M <dbl>,
…
This just really emphasizes what an imbalanced problem this is, but we can see how well we are doing for the post offices in Hawaii vs. the rest of the country.

We are still in the process of building out support for exploring results for the LiblineaR model (like a tidy() method) but in the meantime, you can get out the linear coefficients manually.

po_fit <- pull_workflow_fit(final_fitted$.workflow[[1]])
liblinear_obj <- po_fit$fit$W
liblinear_df <- tibble(
  term = colnames(liblinear_obj),
  estimate = liblinear_obj[1, ]
)
liblinear_df

## # A tibble: 201 x 2
##    term        estimate
##    <chr>          <dbl>
##  1 tf_name_-    0.0814 
##  2 tf_name_.   -0.0664 
##  3 tf_name_'    0.0661 
##  4 tf_name_'S   0.495  
##  5 tf_name_/   -0.00675
##  6 tf_name_&   -0.0198 
##  7 tf_name_`   -0.00264
##  8 tf_name_▁   -0.0419 
##  9 tf_name_▁A  -0.0868 
## 10 tf_name_▁AL  0.201  
## # … with 191 more rows

Those term items are the subwords that the byte pair encoding algorithm found for this data set. We can arrange() them to see which are most important in each direction.

liblinear_df %>%
  arrange(-estimate)

## # A tibble: 201 x 2
##    term        estimate
##    <chr>          <dbl>
##  1 Bias           5.52 
##  2 tf_name_G      0.990
##  3 tf_name_▁D     0.975
##  4 tf_name_RI     0.820
##  5 tf_name_▁T     0.696
##  6 tf_name_AND    0.643
##  7 tf_name_IR     0.578
##  8 tf_name_GH     0.561
##  9 tf_name_VER    0.561
## 10 tf_name_AS     0.559
## # … with 191 more rows

liblinear_df %>%
  arrange(estimate)

## # A tibble: 201 x 2
##    term        estimate
##    <chr>          <dbl>
##  1 tf_name_A     -0.407
##  2 tf_name_I     -0.339
##  3 tf_name_O     -0.330
##  4 tf_name_AN    -0.320
##  5 tf_name_▁H    -0.319
##  6 tf_name_▁P    -0.281
##  7 tf_name_ALE   -0.280
##  8 tf_name_U     -0.259
##  9 tf_name_OWN   -0.258
## 10 tf_name_▁F    -0.222
## # … with 191 more rows
…
