Punctuation in literature | Julia Silge
…
books <- gutenberg_works(title %in% titles) %>%
    gutenberg_download(meta_fields = "title") %>%
    mutate(text = iconv(text, from = "latin1", to = "UTF-8"))

books

## # A tibble: 100,286 x 3
##    gutenberg_id text                               title                  
##           <int> <chr>                              <chr>                  
##  1           11 ALICE'S ADVENTURES IN WONDERLAND   Alice's Adventures in …
##  2           11 ""                                 Alice's Adventures in …
##  3           11 Lewis Carroll                      Alice's Adventures in …
##  4           11 ""                                 Alice's Adventures in …
##  5           11 THE MILLENNIUM FULCRUM EDITION 3.0 Alice's Adventures in …
##  6           11 ""                                 Alice's Adventures in …
##  7           11 ""                                 Alice's Adventures in …
##  8           11 ""                                 Alice's Adventures in …
##  9           11 ""                                 Alice's Adventures in …
## 10           11 CHAPTER I. Down the Rabbit-Hole    Alice's Adventures in …
## # ... with 100,276 more rows

We now have the full texts of these works. Next, let’s find the punctuation that is used in each. In some recent releases of tidytext (in addition to A STICKER) we have support for more kinds of tokenizing, including tokenization for tweets and options for handling punctuation. Let’s keep punctuation, instead of throwing it out, and then filter to only keep the punctuation tokens we want.

library(tidytext)

punctuation <- books %>%
    unnest_tokens(token, text, strip_punct = FALSE) %>%
    count(title, token, sort = TRUE) %>%
    filter(token %in% c(",", "?", ".", '"', "'", "!", ";", ":"))

punctuation

## # A tibble: 70 x 3
##    title                          token     n
##    <chr>                          <chr> <int>
##  1 Ulysses                        .     22178
##  2 Ulysses                        ,     16361
##  3 Wuthering Heights              ,      9892
##  4 Pride and Prejudice            ,      9132
##  5 Adventures of Huckleberry Finn ,      8050
##  6 Anne of Green Gables           .      6567
##  7 Pride and Prejudice            .      6180
##  8 Anne of Green Gables           ,      5505
##  9 Wuthering Heights              .      5141
## 10 Adventures of Huckleberry Finn .      5098
## # ... with 60 more rows
…
