Educational attainment in #TidyTuesday UK towns | Julia Silge
…
set.seed(123)
edu_split <-
  education |> 
  filter(str_detect(income_flag, "deprivation towns")) |>
  select(education_score, income_flag, size_flag, coastal, university_flag, rgn11nm) |>
  initial_split(strata = education_score)

edu_train <- training(edu_split)
edu_test <- testing(edu_split)
set.seed(234)
edu_folds <- bootstraps(edu_train, strata = education_score)
edu_folds

## # Bootstrap sampling using stratification 
## # A tibble: 25 × 2
##    splits            id         
##    <list>            <chr>      
##  1 <split [810/298]> Bootstrap01
##  2 <split [810/294]> Bootstrap02
##  3 <split [810/302]> Bootstrap03
##  4 <split [810/307]> Bootstrap04
##  5 <split [810/300]> Bootstrap05
##  6 <split [810/311]> Bootstrap06
##  7 <split [810/272]> Bootstrap07
##  8 <split [810/302]> Bootstrap08
##  9 <split [810/298]> Bootstrap09
## 10 <split [810/306]> Bootstrap10
## # ℹ 15 more rows
…
