Mining CRAN DESCRIPTION Files | Julia Silge
…
library(tidyverse)

cran <- tools::CRAN_package_db()

# the returned data frame has two columns with the same name???
cran <- cran[,-65]

# make it a tibble
cran <- tbl_df(cran)

cran

## # A tibble: 10,542 × 64
##        Package Version Priority                                             Depends
##          <chr>   <chr>    <chr>                                               <chr>
## 1           A3   1.0.0     <NA>                      R (>= 2.15.0), xtable, pbapply
## 2       abbyyR   0.5.1     <NA>                                        R (>= 3.2.0)
## 3          abc     2.1     <NA> R (>= 2.10), abc.data, nnet, quantreg, MASS, locfit
## 4  ABCanalysis   1.2.1     <NA>                                         R (>= 2.10)
## 5     abc.data     1.0     <NA>                                         R (>= 2.10)
## 6     abcdeFBA     0.4     <NA>              Rglpk,rgl,corrplot,lattice,R (>= 2.10)
## 7     ABCoptim  0.14.0     <NA>                                                <NA>
## 8        ABCp2     1.2     <NA>                                                MASS
## 9      ABC.RAP   0.9.0     <NA>                                        R (>= 3.1.0)
## 10       abcrf     1.5     <NA>                                           R(>= 3.1)
##                                   Imports LinkingTo
##                                     <chr>     <chr>
## 1                                    <NA>      <NA>
## 2  httr, XML, curl, readr, plyr, progress      <NA>
## 3                                    <NA>      <NA>
## 4                                 plotrix      <NA>
## 5                                    <NA>      <NA>
## 6                                    <NA>      <NA>
## 7                                    Rcpp      Rcpp
## 8                                    <NA>      <NA>
## 9                  graphics, stats, utils      <NA>
## 10 readr, MASS, ranger, parallel, stringr      <NA>
## # ... with 10,532 more rows, and 58 more variables: Suggests <chr>, Enhances <chr>, License <chr>,
## #   License_is_FOSS <chr>, License_restricts_use <chr>, OS_type <chr>, Archs <chr>, MD5sum <chr>,
## #   NeedsCompilation <chr>, Additional_repositories <chr>, Author <chr>, `Authors@R` <chr>, Biarch <chr>,
## #   BugReports <chr>, BuildKeepEmpty <chr>, BuildManual <chr>, BuildResaveData <chr>, BuildVignettes <chr>,
## #   Built <chr>, ByteCompile <chr>, `Classification/ACM` <chr>, `Classification/ACM-2012` <chr>,
## #   `Classification/JEL` <chr>, `Classification/MSC` <chr>, `Classification/MSC-2010` <chr>, Collate <chr>,
## #   Collate.unix <chr>, Collate.windows <chr>, Contact <chr>, Copyright <chr>, Date <chr>, Description <chr>,
## #   Encoding <chr>, KeepSource <chr>, Language <chr>, LazyData <chr>, LazyDataCompression <chr>, LazyLoad <chr>,
## #   MailingList <chr>, Maintainer <chr>, Note <chr>, Packaged <chr>, RdMacros <chr>, SysDataCompression <chr>,
…
cran %>% 
    summarise(BugReports = mean(!is.na(BugReports)))

## # A tibble: 1 × 1
##   BugReports
##        <dbl>
## 1  0.2165623

How many packages have a package designated as a VignetteBuilder?

cran %>% 
    count(VignetteBuilder, sort = TRUE)

## # A tibble: 23 × 2
##     VignetteBuilder     n
##               <chr> <int>
## 1              <NA>  8633
## 2             knitr  1773
## 3             R.rsp    83
## 4      knitr, R.rsp    14
## 5  knitr, rmarkdown     7
## 6         highlight     6
## 7      utils, knitr     5
## 8  rmarkdown, knitr     3
## 9       packagedocs     2
## 10           R.rsp,     2
## # ... with 13 more rows
…
