The game is afoot! Topic modeling of Sherlock Holmes stories | Julia Silge
…
sherlock_raw <- gutenberg_download(1661)

sherlock <- sherlock_raw %>%
    mutate(story = ifelse(str_detect(text, "ADVENTURE"),
                          text,
                          NA)) %>%
    fill(story) %>%
    filter(story != "THE ADVENTURES OF SHERLOCK HOLMES") %>%
    mutate(story = factor(story, levels = unique(story)))

sherlock

## # A tibble: 12,624 x 3
##    gutenberg_id
##           <int>
##  1         1661
##  2         1661
##  3         1661
##  4         1661
##  5         1661
##  6         1661
##  7         1661
##  8         1661
##  9         1661
## 10         1661
##    text                                        story                 
##    <chr>                                       <fct>                 
##  1 ADVENTURE I. A SCANDAL IN BOHEMIA           ADVENTURE I. A SCANDA…
##  2 ""                                          ADVENTURE I. A SCANDA…
##  3 I.                                          ADVENTURE I. A SCANDA…
##  4 ""                                          ADVENTURE I. A SCANDA…
##  5 To Sherlock Holmes she is always THE woman… ADVENTURE I. A SCANDA…
##  6 him mention her under any other name. In h… ADVENTURE I. A SCANDA…
##  7 and predominates the whole of her sex. It … ADVENTURE I. A SCANDA…
##  8 any emotion akin to love for Irene Adler. … ADVENTURE I. A SCANDA…
##  9 one particularly, were abhorrent to his co… ADVENTURE I. A SCANDA…
## 10 admirably balanced mind. He was, I take it… ADVENTURE I. A SCANDA…
## # ... with 12,614 more rows

Next, let’s transform this text data into a tidy data structure using unnest_tokens(). We can also remove stop words at this point because they will not do us any favors during the topic modeling process. Using the stop_words dataset as a whole removes a LOT of stop words; you can be more discriminating and choose specific sets of stop words if appropriate for your purpose. Let’s also remove the word “holmes” because it is so common and used neutrally in all twelve stories.

library(tidytext)

tidy_sherlock <- sherlock %>%
    mutate(line = row_number()) %>%
    unnest_tokens(word, text) %>%
    anti_join(stop_words) %>%
    filter(word != "holmes")

tidy_sherlock %>%
    count(word, sort = TRUE)

## # A tibble: 7,437 x 2
##    word        n
##    <chr>   <int>
##  1 time      151
##  2 door      144
##  3 matter    125
##  4 house     123
##  5 hand      120
##  6 night     114
##  7 heard     113
##  8 found     108
##  9 day       106
## 10 morning   102
## # ... with 7,427 more rows
…
