tidytext 0.1.3 | Julia Silge
…
letters <- data_frame(year = seq(1977, 2016),
                      text = c(letters_html, letters_pdf))

Now we have the letters, and can convert this to a tidy text format.

tidy_letters <- letters %>%
    unnest_tokens(word, text) %>%
    add_count(year) %>%
    rename(year_total = n)

tidy_letters

## # A tibble: 486,560 x 3
##     year         word year_total
##    <int>        <chr>      <int>
##  1  1977   chairman's       3063
##  2  1977       letter       3063
##  3  1977         1977       3063
##  4  1977    berkshire       3063
##  5  1977     hathaway       3063
##  6  1977          inc       3063
##  7  1977           to       3063
##  8  1977          the       3063
##  9  1977 stockholders       3063
## 10  1977           of       3063
## # ... with 486,550 more rows

Next, let’s implement the sentiment analysis.

letter_sentiment <- tidy_letters %>%
    inner_join(get_sentiments("loughran"))

letter_sentiment

## # A tibble: 20,921 x 4
##     year        word year_total   sentiment
##    <int>       <chr>      <int>       <chr>
##  1  1977      better       3063    positive
##  2  1977 anticipated       3063 uncertainty
##  3  1977       gains       3063    positive
##  4  1977       gains       3063    positive
##  5  1977      losses       3063    negative
##  6  1977       gains       3063    positive
##  7  1977      losses       3063    negative
##  8  1977 anticipated       3063 uncertainty
##  9  1977   indemnity       3063   litigious
## 10  1977      better       3063    positive
## # ... with 20,911 more rows
…
