Deploy a model on AWS SageMaker with vetiver | Julia Silge
…
You can also get predictions with curl from the endpoint, or from R:

new_homes <- ames_test %>% slice_sample(n = 50) 
predict(new_endpoint, new_homes)

## # A tibble: 50 × 1
##    .pred
##    <dbl>
##  1  5.01
##  2  4.92
##  3  5.12
##  4  5.03
##  5  5.14
##  6  5.08
##  7  5.25
##  8  4.92
##  9  5.31
## 10  5.60
## # ℹ 40 more rows
…
