Changes in #TidyTuesday US polling places | Julia Silge
…
There aren’t 50 states in this plot because this dataset doesn’t include information on all states. My own state (Utah) isn’t really included because we have widespread voting by mail. These lines look flat for the most part, so it doesn’t look like there have been really dramatic decreases across the board, but there are some exceptions. Let’s think about how we could measure the changes represented in this plot.

Choose how to measure change

Let’s start off by counting up the polling places again and storing that info.

by_state <-
  polling_places |> 
  filter(month(election_date) == 11) |> 
  count(state, election_date)

by_state

# A tibble: 159 × 3
   state election_date     n
   <chr> <date>        <int>
 1 AK    2012-11-06      396
 2 AK    2014-11-04      396
 3 AK    2016-11-08      396
 4 AK    2018-11-06      396
 5 AK    2020-11-03      441
 6 AL    2020-11-03     2075
 7 AR    2012-11-06     2536
 8 AR    2014-11-04     2972
 9 AR    2018-11-06     8980
10 AR    2020-11-03      967
# ℹ 149 more rows
…
How might we measure this kind of change (a decrease, in Arkansas' case)? We could fit a model, but with only 4 or 5 elections per state, that seems like overkill. We could look at the change in total number of polling places, but different states have wildly different populations and numbers of polling places. I’d prefer to look at a relative change, like a percent change.

total_change <-
  by_state |> 
  group_by(state) |> 
  mutate(change = n - lag(n)) |> 
  filter(n() > 1) |>
  summarize(change = sum(change, na.rm = TRUE) / first(n)) 

total_change

# A tibble: 33 × 2
   state   change
   <chr>    <dbl>
 1 AK     0.114  
 2 AR    -0.619  
 3 CT    -0.0336 
 4 DE     0.00463
 5 GA    -0.00668
 6 IA    -0.00415
 7 IL    -0.153  
 8 IN    -0.478  
 9 KY     0.0237 
10 LA    -0.0785 
# ℹ 23 more rows
…
