Delete all your tweets using rtweet | Julia Silge
…
WOW, so many tweets. I’m not quite ready to totally empty out my account, so let’s only delete things older than three months.

library(lubridate)

delete_these_tweets <-
  my_tweets %>%
  mutate(created_at = as.POSIXct(created_at, format="%a %b %d %H:%M:%S +0000 %Y"),
         created_at = as.Date(created_at)) %>%
  filter(created_at < today() - days(90)) %>%
  select(created_at, id)

delete_these_tweets

# A tibble: 23,640 × 2
   created_at id                 
   <date>     <chr>              
 1 2022-08-05 1555607029514809344
 2 2022-08-05 1555591167982518272
 3 2022-08-05 1555411107690426368
 4 2022-08-04 1555242813314326528
 5 2022-08-04 1555242504164741120
 6 2022-08-04 1555188866566717442
 7 2022-08-03 1554845178623447042
 8 2022-08-03 1554844667174277120
 9 2022-08-03 1554844356728594432
10 2022-08-03 1554701603399032832
# … with 23,630 more rows
…
