Class imbalance and classification metrics with aircraft wildlife strikes | Julia Silge
…
Notice that the log loss and accuracy got worse, while the sensitivity got better. This is very common and expected, and frankly I wish I hadn’t been so laser focused on needing to get subsampling to work during the SLICED stream! In most real-world situations, a single metric is not adequate to measure how useful a model will be practically, and also unfortunately we often are most interested in detecting the minority class. This means that learning how to account for class imbalance is important in many real modeling scenarios. However, if you are ever in a situation where you are being evaluated on a single metric like log loss, you may want to stick with an imbalanced fit.

test_df <- test_raw %>%
  select(
    id, flight_impact, precipitation,
    visibility, flight_phase, engines, incident_year,
    incident_month, species_id, engine_type,
    aircraft_model, species_quantity, height, speed
  )

augment(imb_fit, test_df) %>%
  select(id, .pred_damage)

## # A tibble: 9,000 x 2
##       id .pred_damage
##    <dbl>        <dbl>
##  1 11254     0.346   
##  2 27716     0.00606 
##  3 29066     0.000544
##  4  3373     0.0406  
##  5  1996     0.153   
##  6 18061     0.000654
##  7 22237     0.00489 
##  8 25346     0.274   
##  9 21554     0.348   
## 10  4273     0.00390 
## # … with 8,990 more rows
…
