Gender Roles with Text Mining and N-grams | Julia Silge
…
Jane Austen and n-grams

An n-gram is a contiguous series of \(n\) words from a text; for example, a bigram is a pair of words, with \(n = 2\). If we want to find out which verbs an author is more likely to pair with the pronoun “she” than with “he”, we can analyze bigrams. Let’s use unnest_tokens from the tidytext package to identify all the bigrams in the 6 completed, published novels of Jane Austen and transform this to a tidy dataset.

library(tidyverse)
library(tidytext)
library(janeaustenr)

austen_bigrams <- austen_books() %>%
    unnest_tokens(bigram, text, token = "ngrams", n = 2)

austen_bigrams

## # A tibble: 725,048 x 2
##                   book          bigram
##                 <fctr>           <chr>
##  1 Sense & Sensibility       sense and
##  2 Sense & Sensibility and sensibility
##  3 Sense & Sensibility  sensibility by
##  4 Sense & Sensibility         by jane
##  5 Sense & Sensibility     jane austen
##  6 Sense & Sensibility     austen 1811
##  7 Sense & Sensibility    1811 chapter
##  8 Sense & Sensibility       chapter 1
##  9 Sense & Sensibility           1 the
## 10 Sense & Sensibility      the family
## # ... with 725,038 more rows

That is all the bigrams from Jane Austen’s works, but we only want the ones that start with “he” or “she”. Jane Austen wrote in the third person, so this is a good example set of texts for this question. The original paper used dependency parsing of sentences and included other pronouns like “her” and “him”, but let’s just look for bigrams that start with “she” and “he”. We will get some adverbs and modifiers and such as the second word in the bigram, but mostly verbs, the main thing we are interested in.

pronouns <- c("he", "she")

bigram_counts <- austen_bigrams %>%
    count(bigram, sort = TRUE) %>%
    separate(bigram, c("word1", "word2"), sep = " ") %>%
    filter(word1 %in% pronouns) %>%
    count(word1, word2, wt = n, sort = TRUE) %>%
    rename(total = nn)

bigram_counts

## # A tibble: 1,571 x 3
##    word1 word2 total
##    <chr> <chr> <int>
##  1   she   had  1472
##  2   she   was  1377
##  3    he   had  1023
##  4    he   was   889
##  5   she could   817
##  6    he    is   399
##  7   she would   383
##  8   she    is   330
##  9    he could   307
## 10    he would   264
## # ... with 1,561 more rows
…
word_ratios <- bigram_counts %>%
    group_by(word2) %>%
    filter(sum(total) > 10) %>%
    ungroup() %>%
    spread(word1, total, fill = 0) %>%
    mutate_if(is.numeric, funs((. + 1) / sum(. + 1))) %>%
    mutate(logratio = log2(she / he)) %>%
    arrange(desc(logratio))    

Which words have about the same likelihood of following “he” or “she” in Jane Austen’s novels?

word_ratios %>% 
    arrange(abs(logratio))

## # A tibble: 164 x 4
##           word2          he          she    logratio
##           <chr>       <dbl>        <dbl>       <dbl>
##  1       always 0.001846438 0.0018956289  0.03793181
##  2        loves 0.000923219 0.0008920607 -0.04953103
##  3          too 0.000923219 0.0008920607 -0.04953103
##  4         when 0.000923219 0.0008920607 -0.04953103
##  5 acknowledged 0.001077089 0.0011150758  0.05000464
##  6     remained 0.001077089 0.0011150758  0.05000464
##  7          had 0.157562702 0.1642506690  0.05997318
##  8       paused 0.001384828 0.0014495986  0.06594619
##  9        would 0.040775504 0.0428189117  0.07054542
## 10       turned 0.003077397 0.0032337199  0.07148437
## # ... with 154 more rows
…
