Impute missing data for #TidyTuesday voyages of captive Africans with tidymodels | Julia Silge
…
First, let’s filter to only the data from before 1850 and recode the gender variable.

liberated_df <- african_names %>%
  filter(year_arrival < 1850) %>%
  mutate(gender = case_when(
    gender == "Boy" ~ "Man",
    gender == "Girl" ~ "Woman",
    TRUE ~ gender
  )) %>%
  mutate_if(is.character, factor)

liberated_df

## # A tibble: 91,394 x 11
##       id voyage_id name  gender   age height ship_name year_arrival
##    <dbl>     <dbl> <fct> <fct>  <dbl>  <dbl> <fct>            <dbl>
##  1     1      2314 Bora  Man       30   62.5 NS de Re…         1819
##  2     2      2315 Flam  Man       30   64   Fabiana           1819
##  3     3      2315 Dee   Man       28   65   Fabiana           1819
##  4     4      2315 Pao   Man       22   62.5 Fabiana           1819
##  5     5      2315 Mufa  Man       16   59   Fabiana           1819
##  6     6      2315 Latty Man       22   67.5 Fabiana           1819
##  7     7      2315 So    Man       20   62   Fabiana           1819
##  8     8      2315 Trua  Man       30   65.5 Fabiana           1819
##  9     9      2315 Tou   Man       18   61.5 Fabiana           1819
## 10    10      2315 Quaco Man       23   62   Fabiana           1819
## # … with 91,384 more rows, and 3 more variables: port_disembark <fct>,
## #   port_embark <fct>, country_origin <fct>
…
