Sliding windows for #TidyTuesday rents in San Francisco | Julia Silge
…
library(tidyverse)

rent_raw <- read_csv('https://raw.githubusercontent.com/rfordatascience/tidytuesday/master/data/2022/2022-07-05/rent.csv')

rent <- rent_raw %>%
    filter(room_in_apt < 1, year > 2005) %>%
    select(date, price, beds, baths) %>%
    mutate(date = lubridate::ymd(date)) %>%
    arrange(date)

rent

## # A tibble: 144,261 × 4
##    date       price  beds baths
##    <date>     <dbl> <dbl> <dbl>
##  1 2006-01-01  1000     2     1
##  2 2006-01-01   900     1    NA
##  3 2006-01-01  1100     1     1
##  4 2006-01-01  1750     2    NA
##  5 2006-01-01  1050     2    NA
##  6 2006-01-01  2100     2    NA
##  7 2006-01-01   750     3    NA
##  8 2006-01-01  1195     0    NA
##  9 2006-01-01   600     1    NA
## 10 2006-01-01  1295     0     1
## # … with 144,251 more rows
## # ℹ Use `print(n = ...)` to see more rows
…
Nice! But I think I would like this in a dataframe, with the date that belongs to each mean price and maybe also the number that was used for the aggregation. I think this is easiest if I write a little function:

mean_rent <- function(df) {
    summarize(df, date = min(date), rent = mean(price), n = n())
}

slide_period_dfr(rent, rent$date, "month", mean_rent)

## # A tibble: 117 × 3
##    date        rent     n
##    <date>     <dbl> <int>
##  1 2006-01-01 1702.  1323
##  2 2006-02-03 1764.  3125
##  3 2006-03-01 1680.  1315
##  4 2006-04-01 1780.  4996
##  5 2006-05-01 1741.  1391
##  6 2006-06-02 1792.  1816
##  7 2006-07-05 1938.  2711
##  8 2006-08-11 1917.  2189
##  9 2006-09-01 2158.   474
## 10 2006-10-18 1981.   185
## # … with 107 more rows
## # ℹ Use `print(n = ...)` to see more rows
…
