Which #TidyTuesday Netflix titles are movies and which are TV shows? | Julia Silge
…
##           Truth
## Prediction Movie TV Show
##    Movie     987     256
##    TV Show   357     346

There is a fitted workflow in the .workflow column of the final_fitted tibble that can be saved and used for prediction later. Here, letâ€™s pull out the parsnip fit and learn about model explanations.

netflix_fit <- pull_workflow_fit(final_fitted$.workflow[[1]])

tidy(netflix_fit) %>%
  arrange(estimate)

## # A tibble: 1,001 x 2
##    term                          estimate
##    <chr>                            <dbl>
##  1 Bias                           -0.362 
##  2 tfidf_description_documentary  -0.200 
##  3 tfidf_description_biopic       -0.176 
##  4 tfidf_description_performance  -0.137 
##  5 tfidf_description_how          -0.107 
##  6 tfidf_description_stand        -0.104 
##  7 tfidf_description_comic        -0.103 
##  8 tfidf_description_mr           -0.0941
##  9 tfidf_description_film         -0.0916
## 10 tfidf_description_summer       -0.0905
## # â€¦ with 991 more rows
…
