Topic modeling for #TidyTuesday Taylor Swift lyrics | Julia Silge
…
Notice that the lyrics variable contains nested tibbles with the texts of the songs; we’ll need to unnest these:

library(tidytext)

tidy_taylor <-
    taylor_album_songs |>
    unnest(lyrics) |> 
    unnest_tokens(word, lyric)

tidy_taylor

## # A tibble: 71,721 × 32
##    album_name   ep    album_release track_number track_name artist     featuring
##    <chr>        <lgl> <date>               <int> <chr>      <chr>      <chr>    
##  1 Taylor Swift FALSE 2006-10-24               1 Tim McGraw Taylor Sw… <NA>     
##  2 Taylor Swift FALSE 2006-10-24               1 Tim McGraw Taylor Sw… <NA>     
##  3 Taylor Swift FALSE 2006-10-24               1 Tim McGraw Taylor Sw… <NA>     
##  4 Taylor Swift FALSE 2006-10-24               1 Tim McGraw Taylor Sw… <NA>     
##  5 Taylor Swift FALSE 2006-10-24               1 Tim McGraw Taylor Sw… <NA>     
##  6 Taylor Swift FALSE 2006-10-24               1 Tim McGraw Taylor Sw… <NA>     
##  7 Taylor Swift FALSE 2006-10-24               1 Tim McGraw Taylor Sw… <NA>     
##  8 Taylor Swift FALSE 2006-10-24               1 Tim McGraw Taylor Sw… <NA>     
##  9 Taylor Swift FALSE 2006-10-24               1 Tim McGraw Taylor Sw… <NA>     
## 10 Taylor Swift FALSE 2006-10-24               1 Tim McGraw Taylor Sw… <NA>     
## # ℹ 71,711 more rows
## # ℹ 25 more variables: bonus_track <lgl>, promotional_release <date>,
## #   single_release <date>, track_release <date>, danceability <dbl>,
## #   energy <dbl>, key <int>, loudness <dbl>, mode <int>, speechiness <dbl>,
## #   acousticness <dbl>, instrumentalness <dbl>, liveness <dbl>, valence <dbl>,
## #   tempo <dbl>, time_signature <int>, duration_ms <int>, explicit <lgl>,
## #   key_name <chr>, mode_name <chr>, key_mode <chr>, line <int>, …

We can find the most common words, or see which words are used the most per song:

tidy_taylor |> 
    anti_join(get_stopwords()) |> 
    count(track_name, word, sort = TRUE)

## # A tibble: 15,892 × 3
##    track_name                              word      n
##    <chr>                                   <chr> <int>
##  1 Red (Taylor's Version)                  red     107
##  2 I Did Something Bad                     di       81
##  3 Shake It Off                            shake    78
##  4 Wonderland                              eh       72
##  5 Out Of The Woods                        yet      63
##  6 You Need To Calm Down                   oh       63
##  7 I Wish You Would                        wish     62
##  8 State Of Grace (Taylor's Version)       oh       59
##  9 Clean                                   oh       56
## 10 Run (Taylor's Version) [From The Vault] run      52
## # ℹ 15,882 more rows
…
Notice that we do in fact have fairly uninteresting and common words as the most common for all the topics. This is because we did not remove stopwords.

Explore topic model results

To explore more deeply, we can tidy() the topic model results to get a dataframe that we can compute on. If we did tidy(topic_model) that would give us the matrix of topic-word probabilities, i.e. the highest probability words from each topic. This is the boring one that is mostly common words like “you” and “me”.

We can alternatively use other metrics for identifying important words, like FREX (high frequency and high exclusivity) or lift:

tidy(topic_model, matrix = "lift")

## # A tibble: 11,271 × 2
##    topic term   
##    <int> <chr>  
##  1     1 between
##  2     1 hair   
##  3     1 prayer 
##  4     1 rare   
##  5     1 sacred 
##  6     1 stairs 
##  7     1 wind   
##  8     1 lock   
##  9     1 palm   
## 10     1 why'd  
## # ℹ 11,261 more rows
…
## # A tibble: 3 × 6
##   topic term                 estimate std.error statistic p.value
##   <int> <chr>                   <dbl>     <dbl>     <dbl>   <dbl>
## 1    11 album_namereputation    0.175    0.0815      2.15 0.0329 
## 2    13 album_nameevermore      0.184    0.0926      1.99 0.0479 
## 3    13 album_namefolklore      0.245    0.0906      2.71 0.00745

Here we see evidence that there is more topic 11 from reputation and more topic 13 in both folklore and evermore. Certainly they are lyrically pretty distinct from her other work! What are some of the highest lift words for this topic?

tidy(topic_model, matrix = "lift") |> 
  filter(topic == 13)

## # A tibble: 867 × 2
##    topic term   
##    <int> <chr>  
##  1    13 lovin  
##  2    13 betty  
##  3    13 party  
##  4    13 showed 
##  5    13 goddamn
##  6    13 house  
##  7    13 stone  
##  8    13 peace  
##  9    13 cuts   
## 10    13 death  
## # ℹ 857 more rows
…
