Predict housing prices in Austin TX with tidymodels and xgboost | Julia Silge
…
Let’s start by tidying the description text.

library(tidytext)

austin_tidy <-
  train_raw %>%
  mutate(priceRange = parse_number(priceRange) + 100000) %>%
  unnest_tokens(word, description) %>%
  anti_join(get_stopwords())

austin_tidy %>%
  count(word, sort = TRUE)

## # A tibble: 17,944 × 2
##    word         n
##    <chr>    <int>
##  1 home     11620
##  2 kitchen   5721
##  3 room      5494
##  4 austin    4918
##  5 new       4772
##  6 large     4771
##  7 2         4585
##  8 bedrooms  4571
##  9 contains  4413
## 10 3         4386
## # … with 17,934 more rows
…
word_freqs <-
  austin_tidy %>%
  count(word, priceRange) %>%
  complete(word, priceRange, fill = list(n = 0)) %>%
  group_by(priceRange) %>%
  mutate(
    price_total = sum(n),
    proportion = n / price_total
  ) %>%
  ungroup() %>%
  filter(word %in% top_words)

word_freqs

## # A tibble: 500 × 5
##    word       priceRange     n price_total proportion
##    <chr>           <dbl> <dbl>       <dbl>      <dbl>
##  1 access         100000   180       56290    0.00320
##  2 access         350000   365      114853    0.00318
##  3 access         450000   322      116678    0.00276
##  4 access         550000   294      125585    0.00234
##  5 access         750000   248      112073    0.00221
##  6 appliances     100000   209       56290    0.00371
##  7 appliances     350000   583      114853    0.00508
##  8 appliances     450000   576      116678    0.00494
##  9 appliances     550000   567      125585    0.00451
## 10 appliances     750000   391      112073    0.00349
## # … with 490 more rows
…
word_mods <-
  word_freqs %>%
  nest(data = c(priceRange, n, price_total, proportion)) %>%
  mutate(
    model = map(data, ~ glm(cbind(n, price_total) ~ priceRange, ., family = "binomial")),
    model = map(model, tidy)
  ) %>%
  unnest(model) %>%
  filter(term == "priceRange") %>%
  mutate(p.value = p.adjust(p.value)) %>%
  arrange(-estimate)

word_mods

## # A tibble: 100 × 7
##    word     data             term          estimate std.error statistic  p.value
##    <chr>    <list>           <chr>            <dbl>     <dbl>     <dbl>    <dbl>
##  1 outdoor  <tibble [5 × 4]> priceRange 0.00000325    1.85e-7     17.6  4.37e-67
##  2 custom   <tibble [5 × 4]> priceRange 0.00000214    1.47e-7     14.6  3.98e-46
##  3 pool     <tibble [5 × 4]> priceRange 0.00000159    1.22e-7     13.0  6.12e-37
##  4 office   <tibble [5 × 4]> priceRange 0.00000150    1.46e-7     10.3  6.03e-23
##  5 suite    <tibble [5 × 4]> priceRange 0.00000143    1.39e-7     10.3  4.03e-23
##  6 gorgeous <tibble [5 × 4]> priceRange 0.000000975   1.62e-7      6.02 1.19e- 7
##  7 w        <tibble [5 × 4]> priceRange 0.000000920   9.05e-8     10.2  2.33e-22
##  8 windows  <tibble [5 × 4]> priceRange 0.000000890   1.28e-7      6.95 2.81e-10
##  9 private  <tibble [5 × 4]> priceRange 0.000000889   1.15e-7      7.70 1.08e-12
## 10 car      <tibble [5 × 4]> priceRange 0.000000778   1.66e-7      4.69 1.52e- 4
## # … with 90 more rows
…
