Classification metrics for #TidyTuesday GPT detectors | Julia Silge
…
Here is the code I used in the video, for those who prefer reading instead of or in addition to video.

Explore data

We’re not going to train a model here, but instead use the output (i.e. predictions) from a handful of models that have been trained to 
detect text output from GPT. Let’s start by reading in the data:

library(tidyverse)
library(detectors)

detectors

## # A tibble: 6,185 × 9
##    kind  .pred_AI .pred_class detector     native name  model document_id prompt
##    <fct>    <dbl> <fct>       <chr>        <chr>  <chr> <chr>       <dbl> <chr> 
##  1 Human 1.00     AI          Sapling      No     Real… Human         497 <NA>  
##  2 Human 0.828    AI          Crossplag    No     Real… Human         278 <NA>  
##  3 Human 0.000214 Human       Crossplag    Yes    Real… Human         294 <NA>  
##  4 AI    0        Human       ZeroGPT      <NA>   Fake… GPT3          671 Plain 
##  5 AI    0.00178  Human       Originality… <NA>   Fake… GPT4          717 Eleva…
##  6 Human 0.000178 Human       HFOpenAI     Yes    Real… Human         855 <NA>  
##  7 AI    0.992    AI          HFOpenAI     <NA>   Fake… GPT3          533 Plain 
##  8 AI    0.0226   Human       Crossplag    <NA>   Fake… GPT4          484 Eleva…
##  9 Human 0        Human       ZeroGPT      Yes    Real… Human         781 <NA>  
## 10 Human 1.00     AI          Sapling      No     Real… Human         460 <NA>  
## # ℹ 6,175 more rows
…
