PCA and the #TidyTuesday best hip hop songs ever | Julia Silge
…
Explore the data

Our modeling goal here is to understand what kind of songs are more highly rated by music critics in the 
#TidyTuesday dataset on hip hop songs. We’ll use principal component analysis and audio features available in the Spotify API to do this! 🎵

First, let’s look at the data on the rankings.

library(tidyverse)

rankings <- read_csv("https://raw.githubusercontent.com/rfordatascience/tidytuesday/master/data/2020/2020-04-14/rankings.csv")

rankings

## # A tibble: 311 x 12
##       ID title   artist   year gender points     n    n1    n2    n3    n4    n5
##    <dbl> <chr>   <chr>   <dbl> <chr>   <dbl> <dbl> <dbl> <dbl> <dbl> <dbl> <dbl>
##  1     1 Juicy   The No…  1994 male      140    18     9     3     3     1     2
##  2     2 Fight … Public…  1989 male      100    11     7     3     1     0     0
##  3     3 Shook … Mobb D…  1995 male       94    13     4     5     1     1     2
##  4     4 The Me… Grandm…  1982 male       90    14     5     3     1     0     5
##  5     5 Nuthin… Dr Dre…  1992 male       84    14     2     4     2     4     2
##  6     6 C.R.E.… Wu-Tan…  1993 male       62    10     3     1     1     4     1
##  7     7 93 ’Ti… Souls …  1993 male       50     7     2     2     2     0     1
##  8     8 Passin… The Ph…  1992 male       48     6     3     2     0     0     1
##  9     9 N.Y. S… Nas      1994 male       46     7     1     3     1     1     1
## 10    10 Dear M… 2Pac     1995 male       42     6     2     1     1     2     0
## # … with 301 more rows
…
Get audio features

Spotify makes a 
set of “audio features” available in its API. This includes features like whether the song is in a major or minor key, the liveness, the instrumentalness, the danceability, and many others. One option to work with these songs would be to get them all at once via a 
playlist that Tom Mock made.

library(spotifyr)
access_token <- get_spotify_access_token()

playlist_features <- get_playlist_audio_features("tmock1923", "7esD007S7kzeSwVtcH9GFe")

playlist_features

## # A tibble: 250 x 61
##    playlist_id playlist_name playlist_img playlist_owner_… playlist_owner_…
##    <chr>       <chr>         <chr>        <chr>            <chr>           
##  1 7esD007S7k… Top 250 Hiph… https://mos… tmock1923        tmock1923       
##  2 7esD007S7k… Top 250 Hiph… https://mos… tmock1923        tmock1923       
##  3 7esD007S7k… Top 250 Hiph… https://mos… tmock1923        tmock1923       
##  4 7esD007S7k… Top 250 Hiph… https://mos… tmock1923        tmock1923       
##  5 7esD007S7k… Top 250 Hiph… https://mos… tmock1923        tmock1923       
##  6 7esD007S7k… Top 250 Hiph… https://mos… tmock1923        tmock1923       
##  7 7esD007S7k… Top 250 Hiph… https://mos… tmock1923        tmock1923       
##  8 7esD007S7k… Top 250 Hiph… https://mos… tmock1923        tmock1923       
##  9 7esD007S7k… Top 250 Hiph… https://mos… tmock1923        tmock1923       
## 10 7esD007S7k… Top 250 Hiph… https://mos… tmock1923        tmock1923       
## # … with 240 more rows, and 56 more variables: danceability <dbl>,
## #   energy <dbl>, key <int>, loudness <dbl>, mode <int>, speechiness <dbl>,
## #   acousticness <dbl>, instrumentalness <dbl>, liveness <dbl>, valence <dbl>,
## #   tempo <dbl>, track.id <chr>, analysis_url <chr>, time_signature <int>,
## #   added_at <chr>, is_local <lgl>, primary_color <lgl>, added_by.href <chr>,
## #   added_by.id <chr>, added_by.type <chr>, added_by.uri <chr>,
## #   added_by.external_urls.spotify <chr>, track.artists <list>,
## #   track.available_markets <list>, track.disc_number <int>,
## #   track.duration_ms <int>, track.episode <lgl>, track.explicit <lgl>,
…
ranking_ids <- rankings %>%
  mutate(
    search_query = paste(title, artist),
    search_query = str_to_lower(search_query),
    search_query = str_remove(search_query, "ft.*$")
  ) %>%
  mutate(id = map_chr(search_query, possibly(pull_id, NA_character_)))

ranking_ids %>%
  select(title, artist, id)

## # A tibble: 311 x 3
##    title                  artist                            id                  
##    <chr>                  <chr>                             <chr>               
##  1 Juicy                  The Notorious B.I.G.              5ByAIlEEnxYdvpnezg7…
##  2 Fight The Power        Public Enemy                      1yo16b3u0lptm6Cs7lx…
##  3 Shook Ones (Part II)   Mobb Deep                         4nASzyRbzL5qZQuOPjQ…
##  4 The Message            Grandmaster Flash & The Furious … 5DuTNKFEjJIySAyJH1y…
##  5 Nuthin’ But A ‘G’ Tha… Dr Dre ft. Snoop Doggy Dogg       4YtoipFgf4k0AfD17Zf…
##  6 C.R.E.A.M.             Wu-Tang Clan                      119c93MHjrDLJTApCVG…
##  7 93 ’Til Infinity       Souls of Mischief                 0PV1TFUMTBrDETzW6KQ…
##  8 Passin’ Me By          The Pharcyde                      4G3dZN9o3o2X4VKwt4C…
##  9 N.Y. State Of Mind     Nas                               5zwz05jkQVT68CjUpPw…
## 10 Dear Mama              2Pac                              6tDxrq4FxEL2q15y37t…
## # … with 301 more rows
…
We have audio features! 🎉 Now let’s put that together with the rankings and create a dataframe for modeling.

ranking_df <- ranking_ids %>%
  bind_cols(ranking_features %>%
    select(audio_features) %>%
    unnest(audio_features)) %>%
  select(title, artist, points, year, danceability:tempo) %>%
  na.omit()

ranking_df

## # A tibble: 293 x 15
##    title artist points  year danceability energy   key loudness  mode
##    <chr> <chr>   <dbl> <dbl>        <dbl>  <dbl> <int>    <dbl> <int>
##  1 Juicy The N…    140  1994        0.889  0.816     9    -4.67     1
##  2 Figh… Publi…    100  1989        0.797  0.582     2   -13.0      1
##  3 Shoo… Mobb …     94  1995        0.637  0.878     6    -5.51     1
##  4 The … Grand…     90  1982        0.947  0.607    10   -10.6      0
##  5 Nuth… Dr Dr…     84  1992        0.801  0.699    11    -8.18     0
##  6 C.R.… Wu-Ta…     62  1993        0.479  0.549    11   -10.6      0
##  7 93 ’… Souls…     50  1993        0.59   0.672     1   -11.8      1
##  8 Pass… The P…     48  1992        0.759  0.756     4    -8.14     0
##  9 N.Y.… Nas        46  1994        0.665  0.91      6    -4.68     0
## 10 Dear… 2Pac       42  1995        0.773  0.54      6    -7.12     1
## # … with 283 more rows, and 6 more variables: speechiness <dbl>,
## #   acousticness <dbl>, instrumentalness <dbl>, liveness <dbl>, valence <dbl>,
## #   tempo <dbl>
…
And finally, let’s fit the same kind of model we fit before, but now with juice(ranking_prep). This approach really emphasizes how recipes can be used for data preprocessing. Notice how juice(ranking_prep) has already taken the log of points, has the component values ready to go, etc.

juice(ranking_prep)

## # A tibble: 293 x 8
##    title        artist             points     PC1    PC2     PC3    PC4      PC5
##    <fct>        <fct>               <dbl>   <dbl>  <dbl>   <dbl>  <dbl>    <dbl>
##  1 Juicy        The Notorious B.I…   4.94 -0.987   0.904 -1.10    1.16   5.46e-1
##  2 Fight The P… Public Enemy         4.61 -0.837  -1.42   0.686   0.184 -1.78e+0
##  3 Shook Ones … Mobb Deep            4.54  0.0153  1.06  -0.929   0.681 -3.27e-1
##  4 The Message  Grandmaster Flash…   4.50 -3.42    0.138 -0.0333 -0.653 -2.63e-4
##  5 Nuthin’ But… Dr Dre ft. Snoop …   4.43 -1.90    0.405 -0.629  -1.18   8.27e-2
##  6 C.R.E.A.M.   Wu-Tang Clan         4.13  0.190  -2.25  -1.94   -0.245  2.80e+0
##  7 93 ’Til Inf… Souls of Mischief    3.91  0.413  -0.892 -0.576   1.93   1.20e+0
##  8 Passin’ Me … The Pharcyde         3.87 -0.990   0.289 -0.607  -0.615 -1.01e+0
##  9 N.Y. State … Nas                  3.83 -0.819   1.93  -1.41   -0.736 -5.23e-1
## 10 Dear Mama    2Pac                 3.74 -0.143  -0.698  1.19    0.349 -4.05e-1
## # … with 283 more rows
…
