tidylo is now on CRAN! 🎉 | Julia Silge
…
tuesdata <- tt_load(2020, week = 22)
cocktails <- tuesdata$cocktails

cocktail_counts <- cocktails %>%
  mutate(
    glass = str_to_lower(glass),
    ingredient = str_to_lower(ingredient)
  ) %>%
  count(glass, ingredient, sort = TRUE)

cocktail_counts

## # A tibble: 900 x 3
##    glass          ingredient       n
##    <chr>          <chr>        <int>
##  1 cocktail glass gin             39
##  2 collins glass  vodka           24
##  3 cocktail glass dry vermouth    19
##  4 cocktail glass lemon juice     19
##  5 cocktail glass triple sec      19
##  6 collins glass  sugar           19
##  7 highball glass vodka           18
##  8 highball glass gin             16
##  9 collins glass  orange juice    15
## 10 highball glass orange juice    15
## # … with 890 more rows

Now let’s use the bind_log_odds() function from the tidylo package to find the weighted log odds for each bigram. The weighted log odds computed by this function are also 
z-scores for the log odds; this quantity is useful for comparing frequencies across categories or sets but its relationship to an odds ratio is not straightforward after the weighting.

What are the ingredients with the highest weighted log odds for these glasses?

cocktail_log_odds <- cocktail_counts %>%
  bind_log_odds(glass, ingredient, n) 

cocktail_log_odds %>%
  filter(n > 5) %>%
  arrange(-log_odds_weighted)

## # A tibble: 83 x 4
##    glass              ingredient               n log_odds_weighted
##    <chr>              <chr>                <int>             <dbl>
##  1 coffee mug         coffee                  10              8.52
##  2 coffee mug         chocolate                6              8.25
##  3 coffee mug         sugar                    6              7.94
##  4 coffee mug         milk                    11              7.63
##  5 champagne flute    champagne                6              7.26
##  6 whiskey sour glass powdered sugar           6              6.56
##  7 highball glass     yoghurt                  9              6.42
##  8 cocktail glass     orange bitters          11              6.35
##  9 cocktail glass     dry vermouth            19              6.32
## 10 shot glass         bailey's irish cream     9              5.91
## # … with 73 more rows
…
