Upcoming changes to tidytext: threat of COLLAPSE | Julia Silge
…
original_books

## # A tibble: 73,422 x 4
##    text                    book                linenumber chapter
##    <chr>                   <fct>                    <int>   <int>
##  1 "SENSE AND SENSIBILITY" Sense & Sensibility          1       0
##  2 ""                      Sense & Sensibility          2       0
##  3 "by Jane Austen"        Sense & Sensibility          3       0
##  4 ""                      Sense & Sensibility          4       0
##  5 "(1811)"                Sense & Sensibility          5       0
##  6 ""                      Sense & Sensibility          6       0
##  7 ""                      Sense & Sensibility          7       0
##  8 ""                      Sense & Sensibility          8       0
##  9 ""                      Sense & Sensibility          9       0
## 10 "CHAPTER 1"             Sense & Sensibility         10       1
## # … with 73,412 more rows

We can tokenize with collapse = NULL, which will not combine text across rows across lines. This may be appropriate for some text analysis tasks.

original_books %>%
  unnest_tokens(token, text, token = "ngrams", n = 2)

## # A tibble: 675,025 x 4
##    book                linenumber chapter token          
##    <fct>                    <int>   <int> <chr>          
##  1 Sense & Sensibility          1       0 sense and      
##  2 Sense & Sensibility          1       0 and sensibility
##  3 Sense & Sensibility          2       0 <NA>           
##  4 Sense & Sensibility          3       0 by jane        
##  5 Sense & Sensibility          3       0 jane austen    
##  6 Sense & Sensibility          4       0 <NA>           
##  7 Sense & Sensibility          5       0 <NA>           
##  8 Sense & Sensibility          6       0 <NA>           
##  9 Sense & Sensibility          7       0 <NA>           
## 10 Sense & Sensibility          8       0 <NA>           
## # … with 675,015 more rows

Alternatively, we can tokenize using collapse = c("book", "chapter"). Notice that we have more bigrams this way, because we have combined text across rows to find more bigrams, but only within chapters. We could have used group_by(book, chapter) instead.

original_books %>%
  unnest_tokens(token, text,
    token = "ngrams", n = 2,
    collapse = c("book", "chapter")
  )

## # A tibble: 724,780 x 3
##    book                chapter token          
##    <fct>                 <int> <chr>          
##  1 Sense & Sensibility       0 sense and      
##  2 Sense & Sensibility       0 and sensibility
##  3 Sense & Sensibility       0 sensibility by 
##  4 Sense & Sensibility       0 by jane        
##  5 Sense & Sensibility       0 jane austen    
##  6 Sense & Sensibility       0 austen 1811    
##  7 Sense & Sensibility       1 chapter 1      
##  8 Sense & Sensibility       1 1 the          
##  9 Sense & Sensibility       1 the family     
## 10 Sense & Sensibility       1 family of      
## # … with 724,770 more rows
…
