Getting started with k-means and #TidyTuesday employment status | Julia Silge
…
employment_demo

## # A tibble: 230 x 5
##    occupation                          asian black_or_african_a…    women  total
##    <chr>                               <dbl>               <dbl>    <dbl>  <dbl>
##  1 agriculture_and_related_construct… -0.553             -0.410  -1.31    -1.48
##  2 agriculture_and_related_farming_f… -0.943             -1.22   -0.509    0.706
##  3 agriculture_and_related_installat… -0.898             -1.28   -1.38    -0.992
##  4 agriculture_and_related_manage_me… -1.06              -1.66   -0.291    0.733
##  5 agriculture_and_related_managemen… -1.06              -1.65   -0.300    0.750
##  6 agriculture_and_related_office_an… -0.671             -1.54    2.23    -0.503
##  7 agriculture_and_related_productio… -0.385             -0.0372 -0.622   -0.950
##  8 agriculture_and_related_professio… -0.364             -1.17    0.00410 -0.782
##  9 agriculture_and_related_protectiv… -1.35              -0.647  -0.833   -1.39
## 10 agriculture_and_related_sales_and… -1.35              -1.44    0.425   -1.36
## # … with 220 more rows
…
