Fit and predict with tidymodels for #TidyTuesday bird baths in Australia | Julia Silge
…
Evaluate model on new data

Let’s stick with this model, logistic regression together with interactions between urban/rural and bird type. We can fit the model one time to the entire training set.

bird_fit <- fit(wf_interact, bird_train)

Now this trained model is ready to be applied to new data. For example, we can predict the test set, perhaps to get out probabilities.

predict(bird_fit, bird_test, type = "prob")

## # A tibble: 3,571 × 2
##    .pred_bird `.pred_no bird`
##         <dbl>           <dbl>
##  1     0.213            0.787
##  2     0.123            0.877
##  3     0.141            0.859
##  4     0.283            0.717
##  5     0.119            0.881
##  6     0.252            0.748
##  7     0.0380           0.962
##  8     0.123            0.877
##  9     0.129            0.871
## 10     0.119            0.881
## # … with 3,561 more rows

In fact, we can predict on any kind of new data that has the right input variables. Let’s make some ourselves.

new_bird_data <-
  tibble(bird_type = top_birds) %>%
  crossing(urban_rural = c("Urban", "Rural"))

new_bird_data

## # A tibble: 30 × 2
##    bird_type         urban_rural
##    <chr>             <chr>      
##  1 Australian Magpie Rural      
##  2 Australian Magpie Urban      
##  3 Crested Pigeon    Rural      
##  4 Crested Pigeon    Urban      
##  5 Crimson Rosella   Rural      
##  6 Crimson Rosella   Urban      
##  7 Eastern Spinebill Rural      
##  8 Eastern Spinebill Urban      
##  9 Grey Fantail      Rural      
## 10 Grey Fantail      Urban      
## # … with 20 more rows

We can use a 
helpful function like augment() to take this new data and “augment” it with predicted probabilities and class predictions, and we can 
use predict() with specific type arguments to return specialized predictions like confidence intervals. Let’s bind these together.

bird_preds <-
  augment(bird_fit, new_bird_data) %>%
  bind_cols(
    predict(bird_fit, new_bird_data, type = "conf_int")
  )

bird_preds

## # A tibble: 30 × 9
##    bird_type urban_rural .pred_class .pred_bird `.pred_no bird` .pred_lower_bird
##    <chr>     <chr>       <fct>            <dbl>           <dbl>            <dbl>
##  1 Australi… Rural       no bird         0.245            0.755           0.193 
##  2 Australi… Urban       no bird         0.287            0.713           0.249 
##  3 Crested … Rural       no bird         0.0826           0.917           0.0526
##  4 Crested … Urban       no bird         0.141            0.859           0.113 
##  5 Crimson … Rural       no bird         0.215            0.785           0.166 
##  6 Crimson … Urban       no bird         0.123            0.877           0.0969
##  7 Eastern … Rural       no bird         0.283            0.717           0.227 
##  8 Eastern … Urban       no bird         0.0973           0.903           0.0736
##  9 Grey Fan… Rural       no bird         0.254            0.746           0.200 
## 10 Grey Fan… Urban       no bird         0.0614           0.939           0.0435
## # … with 20 more rows, and 3 more variables: .pred_upper_bird <dbl>,
## #   .pred_lower_no bird <dbl>, .pred_upper_no bird <dbl>
…
