Modeling human/computer interactions on Star Trek from #TidyTuesday with workflowsets | Julia Silge
…
comp_split <-
  computer_raw %>%
  distinct(value_id, .keep_all = TRUE) %>%
  select(char_type, interaction) %>%
  initial_split(prop = 0.8, strata = char_type)

comp_train <- training(comp_split)
comp_test <- testing(comp_split)

set.seed(234)
comp_folds <- bootstraps(comp_train, strata = char_type)
comp_folds

## # Bootstrap sampling using stratification 
## # A tibble: 25 × 2
##    splits            id         
##    <list>            <chr>      
##  1 <split [329/118]> Bootstrap01
##  2 <split [329/128]> Bootstrap02
##  3 <split [329/134]> Bootstrap03
##  4 <split [329/124]> Bootstrap04
##  5 <split [329/118]> Bootstrap05
##  6 <split [329/116]> Bootstrap06
##  7 <split [329/106]> Bootstrap07
##  8 <split [329/124]> Bootstrap08
##  9 <split [329/121]> Bootstrap09
## 10 <split [329/121]> Bootstrap10
## # … with 15 more rows
…
