Predict which #TidyTuesday Scooby Doo monsters are REAL with a tuned decision tree model | Julia Silge
…
set.seed(234)
scooby_folds <- bootstraps(scooby_train, strata = monster_real)
scooby_folds

## # Bootstrap sampling using stratification 
## # A tibble: 25 x 2
##    splits            id         
##    <list>            <chr>      
##  1 <split [375/133]> Bootstrap01
##  2 <split [375/144]> Bootstrap02
##  3 <split [375/140]> Bootstrap03
##  4 <split [375/132]> Bootstrap04
##  5 <split [375/139]> Bootstrap05
##  6 <split [375/134]> Bootstrap06
##  7 <split [375/146]> Bootstrap07
##  8 <split [375/132]> Bootstrap08
##  9 <split [375/143]> Bootstrap09
## 10 <split [375/143]> Bootstrap10
## # … with 15 more rows
…
## Decision Tree Model Specification (classification)
## 
## Main Arguments:
##   cost_complexity = tune()
##   tree_depth = tune()
##   min_n = tune()
## 
## Computational engine: rpart

Let’s set up a grid of possible model parameters to try.

tree_grid <- grid_regular(cost_complexity(), tree_depth(), min_n(), levels = 4)
tree_grid

## # A tibble: 64 x 3
##    cost_complexity tree_depth min_n
##              <dbl>      <int> <int>
##  1    0.0000000001          1     2
##  2    0.0000001             1     2
##  3    0.0001                1     2
##  4    0.1                   1     2
##  5    0.0000000001          5     2
##  6    0.0000001             5     2
##  7    0.0001                5     2
##  8    0.1                   5     2
##  9    0.0000000001         10     2
## 10    0.0000001            10     2
## # … with 54 more rows
…
set.seed(345)
tree_rs <-
  tune_grid(
    tree_spec,
    monster_real ~ year_aired + imdb,
    resamples = scooby_folds,
    grid = tree_grid,
    metrics = metric_set(accuracy, roc_auc, sensitivity, specificity)
  )

tree_rs

## # Tuning results
## # Bootstrap sampling using stratification 
## # A tibble: 25 x 4
##    splits            id          .metrics           .notes          
##    <list>            <chr>       <list>             <list>          
##  1 <split [375/133]> Bootstrap01 <tibble [256 × 7]> <tibble [0 × 1]>
##  2 <split [375/144]> Bootstrap02 <tibble [256 × 7]> <tibble [0 × 1]>
##  3 <split [375/140]> Bootstrap03 <tibble [256 × 7]> <tibble [0 × 1]>
##  4 <split [375/132]> Bootstrap04 <tibble [256 × 7]> <tibble [0 × 1]>
##  5 <split [375/139]> Bootstrap05 <tibble [256 × 7]> <tibble [0 × 1]>
##  6 <split [375/134]> Bootstrap06 <tibble [256 × 7]> <tibble [0 × 1]>
##  7 <split [375/146]> Bootstrap07 <tibble [256 × 7]> <tibble [0 × 1]>
##  8 <split [375/132]> Bootstrap08 <tibble [256 × 7]> <tibble [0 × 1]>
##  9 <split [375/143]> Bootstrap09 <tibble [256 × 7]> <tibble [0 × 1]>
## 10 <split [375/143]> Bootstrap10 <tibble [256 × 7]> <tibble [0 × 1]>
## # … with 15 more rows
…
