PCA and UMAP with tidymodels and #TidyTuesday cocktail recipes | Julia Silge
…
Here is the code I used in the video, for those who prefer reading instead of or in addition to video.

Explore the data

Our modeling goal is to use unsupervised algorithms for dimensionality reduction with 
cocktail recipes from this week’s #TidyTuesday dataset. In my 
earlier blog post this week, I used one of the cocktail datasets included and here let’s use the other one.

boston_cocktails <- readr::read_csv("https://raw.githubusercontent.com/rfordatascience/tidytuesday/master/data/2020/2020-05-26/boston_cocktails.csv")

boston_cocktails %>%
  count(ingredient, sort = TRUE)

## # A tibble: 569 x 2
##    ingredient            n
##    <chr>             <int>
##  1 Gin                 176
##  2 Fresh lemon juice   138
##  3 Simple Syrup        115
##  4 Vodka               114
##  5 Light Rum           113
##  6 Dry Vermouth        107
##  7 Fresh Lime Juice    107
##  8 Triple Sec          107
##  9 Powdered Sugar       90
## 10 Grenadine            85
## # … with 559 more rows
…
cocktails_parsed

## # A tibble: 2,542 x 7
##    name     category   row_id ingredient_numb… ingredient measure measure_number
##    <chr>    <chr>       <dbl>            <dbl> <chr>      <chr>            <dbl>
##  1 Gauguin  Cocktail …      1                1 light rum  2 oz              2   
##  2 Gauguin  Cocktail …      1                3 lemon jui… 1 oz              1   
##  3 Gauguin  Cocktail …      1                4 lime juice 1 oz              1   
##  4 Fort La… Cocktail …      2                1 light rum  1.5 oz            1.5 
##  5 Fort La… Cocktail …      2                2 sweet ver… .5 oz             0.5 
##  6 Fort La… Cocktail …      2                3 orange ju… .25 oz            0.25
##  7 Fort La… Cocktail …      2                4 lime juice .25 oz            0.25
##  8 Cuban C… Cocktail …      4                1 lime juice .5 oz             0.5 
##  9 Cuban C… Cocktail …      4                2 powdered … .5 oz             0.5 
## 10 Cuban C… Cocktail …      4                3 light rum  2 oz              2   
## # … with 2,532 more rows

I typically do my data cleaning with data in a tidy format, like boston_cocktails or cocktails_parsed. When it’s time for modeling, we usually need the data in a wider format, so let’s use pivot_wider() to reshape our data.

cocktails_df <- cocktails_parsed %>%
  select(-ingredient_number, -row_id, -measure) %>%
  pivot_wider(names_from = ingredient, values_from = measure_number, values_fill = 0) %>%
  janitor::clean_names() %>%
  na.omit()

cocktails_df

## # A tibble: 937 x 42
##    name  category light_rum lemon_juice lime_juice sweet_vermouth orange_juice
##    <chr> <chr>        <dbl>       <dbl>      <dbl>          <dbl>        <dbl>
##  1 Gaug… Cocktai…      2           1          1               0           0   
##  2 Fort… Cocktai…      1.5         0          0.25            0.5         0.25
##  3 Cuba… Cocktai…      2           0          0.5             0           0   
##  4 Cool… Cocktai…      0           0          0               0           1   
##  5 John… Whiskies      0           1          0               0           0   
##  6 Cher… Cocktai…      1.25        0          0               0           0   
##  7 Casa… Cocktai…      2           0          1.5             0           0   
##  8 Cari… Cocktai…      0.5         0          0               0           0   
##  9 Ambe… Cordial…      0           0.25       0               0           0   
## 10 The … Whiskies      0           0.5        0               0           0   
## # … with 927 more rows, and 35 more variables: powdered_sugar <dbl>,
## #   dark_rum <dbl>, cranberry_juice <dbl>, pineapple_juice <dbl>,
## #   bourbon_whiskey <dbl>, simple_syrup <dbl>, cherry_flavored_brandy <dbl>,
## #   light_cream <dbl>, triple_sec <dbl>, maraschino <dbl>, amaretto <dbl>,
## #   grenadine <dbl>, apple_brandy <dbl>, brandy <dbl>, gin <dbl>,
## #   anisette <dbl>, dry_vermouth <dbl>, apricot_flavored_brandy <dbl>,
## #   bitters <dbl>, straight_rye_whiskey <dbl>, benedictine <dbl>,
## #   egg_white <dbl>, half_and_half <dbl>, vodka <dbl>, grapefruit_juice <dbl>,
## #   blended_scotch_whiskey <dbl>, port <dbl>, white_creme_de_cacao <dbl>,
…
