Tuning random forest hyperparameters with #TidyTuesday trees data | Julia Silge
…
This grid did not involve every combination of min_n and mtry but we can get an idea of what is going on. It looks like higher values of mtry are good (above about 10) and lower values of min_n are good (below about 10). We can get a better handle on the hyperparameters by tuning one more time, this time using regular_grid(). Let’s set ranges of hyperparameters we want to try, based on the results from our initial tune.

rf_grid <- grid_regular(
  mtry(range = c(10, 30)),
  min_n(range = c(2, 8)),
  levels = 5
)

rf_grid

## # A tibble: 25 x 2
##     mtry min_n
##    <int> <int>
##  1    10     2
##  2    15     2
##  3    20     2
##  4    25     2
##  5    30     2
##  6    10     3
##  7    15     3
##  8    20     3
##  9    25     3
## 10    30     3
## # … with 15 more rows
…
