Handle class imbalance in #TidyTuesday climbing expedition data with tidymodels | Julia Silge
…
Here is the code I used in the video, for those who prefer reading instead of or in addition to video.

Explore the data

Our modeling goal is to predict the probability of an Himalayan expedition member surviving or dying 
based on characteristics of the person and climbing expedition from this week’s #TidyTuesday dataset. This dataset gives us the opportunity to talk about feature engineering steps like subsampling for class imbalance (many more people survive than die) and imputing missing data (lots of expedition members are missing age, for example).

Let’s start by reading in the data.

library(tidyverse)
members <- read_csv("https://raw.githubusercontent.com/rfordatascience/tidytuesday/master/data/2020/2020-09-22/members.csv")

members

## # A tibble: 76,519 x 21
##    expedition_id member_id peak_id peak_name  year season sex     age
##    <chr>         <chr>     <chr>   <chr>     <dbl> <chr>  <chr> <dbl>
##  1 AMAD78301     AMAD7830… AMAD    Ama Dabl…  1978 Autumn M        40
##  2 AMAD78301     AMAD7830… AMAD    Ama Dabl…  1978 Autumn M        41
##  3 AMAD78301     AMAD7830… AMAD    Ama Dabl…  1978 Autumn M        27
##  4 AMAD78301     AMAD7830… AMAD    Ama Dabl…  1978 Autumn M        40
##  5 AMAD78301     AMAD7830… AMAD    Ama Dabl…  1978 Autumn M        34
##  6 AMAD78301     AMAD7830… AMAD    Ama Dabl…  1978 Autumn M        25
##  7 AMAD78301     AMAD7830… AMAD    Ama Dabl…  1978 Autumn M        41
##  8 AMAD78301     AMAD7830… AMAD    Ama Dabl…  1978 Autumn M        29
##  9 AMAD79101     AMAD7910… AMAD    Ama Dabl…  1979 Spring M        35
## 10 AMAD79101     AMAD7910… AMAD    Ama Dabl…  1979 Spring M        37
## # … with 76,509 more rows, and 13 more variables: citizenship <chr>,
## #   expedition_role <chr>, hired <lgl>, highpoint_metres <dbl>, success <lgl>,
## #   solo <lgl>, oxygen_used <lgl>, died <lgl>, death_cause <chr>,
## #   death_height_metres <dbl>, injured <lgl>, injury_type <chr>,
## #   injury_height_metres <dbl>
…
members_df <- members %>%
  filter(season != "Unknown", !is.na(sex), !is.na(citizenship)) %>%
  select(peak_id, year, season, sex, age, citizenship, hired, success, died) %>%
  mutate(died = case_when(
    died ~ "died",
    TRUE ~ "survived"
  )) %>%
  mutate_if(is.character, factor) %>%
  mutate_if(is.logical, as.integer)

members_df

## # A tibble: 76,507 x 9
##    peak_id  year season sex     age citizenship hired success died    
##    <fct>   <dbl> <fct>  <fct> <dbl> <fct>       <int>   <int> <fct>   
##  1 AMAD     1978 Autumn M        40 France          0       0 survived
##  2 AMAD     1978 Autumn M        41 France          0       0 survived
##  3 AMAD     1978 Autumn M        27 France          0       0 survived
##  4 AMAD     1978 Autumn M        40 France          0       0 survived
##  5 AMAD     1978 Autumn M        34 France          0       0 survived
##  6 AMAD     1978 Autumn M        25 France          0       0 survived
##  7 AMAD     1978 Autumn M        41 France          0       0 survived
##  8 AMAD     1978 Autumn M        29 France          0       0 survived
##  9 AMAD     1979 Spring M        35 USA             0       0 survived
## 10 AMAD     1979 Spring M        37 W Germany       0       1 survived
## # … with 76,497 more rows
…
