Dimensionality reduction for #TidyTuesday Billboard Top 100 songs | Julia Silge
…
## spotify feature data
audio_features <- readr::read_csv("https://raw.githubusercontent.com/rfordatascience/tidytuesday/master/data/2021/2021-09-14/audio_features.csv")

Let’s start by finding the longest streak each song was on this chart.

max_weeks <-
  billboard %>%
  group_by(song_id) %>%
  summarise(weeks_on_chart = max(weeks_on_chart), .groups = "drop")

max_weeks

## # A tibble: 29,389 × 2
##    song_id                                                    weeks_on_chart
##    <chr>                                                               <dbl>
##  1 -twistin'-White Silver SandsBill Black's Combo                          2
##  2 ¿Dònde Està Santa Claus? (Where Is Santa Claus?)Augie Rios              4
##  3 ......And Roses And RosesAndy Williams                                  7
##  4 ...And Then There Were DrumsSandy Nelson                                4
##  5 ...Baby One More TimeBritney Spears                                    32
##  6 ...Ready For It?Taylor Swift                                           19
##  7 '03 Bonnie & ClydeJay-Z Featuring Beyonce Knowles                      23
##  8 '65 Love AffairPaul Davis                                              20
##  9 '98 Thug ParadiseTragedy, Capone, Infinite                              5
## 10 'Round We GoBig Sister                                                  2
## # … with 29,379 more rows

Now let’s join this with the Spotify audio features (where available). We don’t have Spotify features for all the songs, and it’s possible that there are systematic differences in songs that we could vs. could not get Spotify data for. Something to keep in mind!

billboard_joined <-
  audio_features %>%
  filter(!is.na(spotify_track_popularity)) %>%
  inner_join(max_weeks)

billboard_joined

## # A tibble: 24,395 × 23
##    song_id   performer  song   spotify_genre  spotify_track_id spotify_track_pr…
##    <chr>     <chr>      <chr>  <chr>          <chr>            <chr>            
##  1 ......An… Andy Will… .....… ['adult stand… 3tvqPPpXyIgKrm4… https://p.scdn.c…
##  2 ...And T… Sandy Nel… ...An… ['rock-and-ro… 1fHHq3qHU8wpRKH… <NA>             
##  3 ...Baby … Britney S… ...Ba… ['dance pop',… 3MjUtNVVq3C8Fn0… https://p.scdn.c…
##  4 ...Ready… Taylor Sw… ...Re… ['pop', 'post… 2yLa0QULdQr0qAI… <NA>             
##  5 '03 Bonn… Jay-Z Fea… '03 B… ['east coast … 5ljCWsDlSyJ41kw… <NA>             
##  6 '65 Love… Paul Davis '65 L… ['album rock'… 5nBp8F6tekSrnFg… https://p.scdn.c…
##  7 'til I C… Tammy Wyn… 'til … ['country', '… 0aJHZYjwbfTmeyU… https://p.scdn.c…
##  8 'Til My … Luther Va… 'Til … ['funk', 'mot… 2R97RZWUx4vAFbM… https://p.scdn.c…
##  9 'Til Sum… Keith Urb… 'Til … ['australian … 1CKmI1IQjVEVB3F… <NA>             
## 10 'Til You… After 7    'Til … ['funk', 'neo… 3kGMziz884MLV1o… <NA>             
## # … with 24,385 more rows, and 17 more variables:
## #   spotify_track_duration_ms <dbl>, spotify_track_explicit <lgl>,
## #   spotify_track_album <chr>, danceability <dbl>, energy <dbl>, key <dbl>,
## #   loudness <dbl>, mode <dbl>, speechiness <dbl>, acousticness <dbl>,
## #   instrumentalness <dbl>, liveness <dbl>, valence <dbl>, tempo <dbl>,
## #   time_signature <dbl>, spotify_track_popularity <dbl>, weeks_on_chart <dbl>
…
