Mapping Election Results in Utah | Julia Silge
…
Counties in Utah have FIPS codes that start with 49.

utah <- all_results %>% 
    filter(str_detect(fips, "^49"))

utah

## # A tibble: 290 × 8
##       X1 cand_id          cand_name votes total state  fips          pct
##    <int>   <chr>              <chr> <int> <int> <chr> <chr>        <dbl>
## 1  16087 UT55311       Donald Trump  1800  2434    UT 49001 0.7395234182
## 2  16088 UT55316      Evan McMullin   316  2434    UT 49001 0.1298274445
## 3  16089 UT55310    Hillary Clinton   258  2434    UT 49001 0.1059983566
## 4  16090 UT55313       Gary Johnson    36  2434    UT 49001 0.0147904684
## 5  16091 UT55312     Darrell Castle    12  2434    UT 49001 0.0049301561
## 6  16092 UT55318         Jill Stein    10  2434    UT 49001 0.0041084634
## 7  16093 UT55315     Alyson Kennedy     1  2434    UT 49001 0.0004108463
## 8  16094 UT55317   Monica Moorehead     1  2434    UT 49001 0.0004108463
## 9  16095 UT55314 Rocky De La Fuente     0  2434    UT 49001 0.0000000000
## 10 16096 UT55319     Rocky Giordani     0  2434    UT 49001 0.0000000000
## # ... with 280 more rows
…
utah_spread <- utah %>% 
    filter(cand_name %in% c("Donald Trump", "Hillary Clinton", "Evan McMullin")) %>%
    select(fips, cand_name, pct) %>% 
    mutate(pct = pct * 100,
           region = as.numeric(fips)) %>%
    spread(cand_name, pct) %>%
    select(-fips)

utah_spread

## # A tibble: 29 × 4
##    region `Donald Trump` `Evan McMullin` `Hillary Clinton`
## *   <dbl>          <dbl>           <dbl>             <dbl>
## 1   49001       73.95234       12.982744         10.599836
## 2   49003       62.38820       21.700508         10.962050
## 3   49005       46.74996       27.672505         20.515627
## 4   49007       66.04390        7.747583         21.857852
## 5   49009       70.32258        8.602151         16.344086
## 6   49011       44.94619       27.521151         22.397698
## 7   49013       79.50689       10.427846          7.222625
## 8   49015       79.80296        8.491673          8.890453
## 9   49017       68.74455       11.987794         15.344377
## 10  49019       43.46058        6.189293         43.370228
## # ... with 19 more rows
…
