Tidy Text Mining with R | Julia Silge
…
        By Julia Silge

        October 28, 2016

I am so pleased to announce that tidytext 0.1.2 is now available on CRAN. This release of tidytext, a package for text mining using tidy data principles by Dave Robinson and me, includes some bug fixes and performance improvements, as well as some new functionality.

There is now a handy function for accessing the various lexicons in the sentiments dataset without the columns that are not used in that particular dataset; this makes these datasets even easier to use with pipes and joins from dplyr.

library(tidytext)
library(dplyr)

get_sentiments("afinn")

## # A tibble: 2,476 x 2
##          word score
##         <chr> <int>
##  1    abandon    -2
##  2  abandoned    -2
##  3   abandons    -2
##  4   abducted    -2
##  5  abduction    -2
##  6 abductions    -2
##  7      abhor    -3
##  8   abhorred    -3
##  9  abhorrent    -3
## 10     abhors    -3
## # ... with 2,466 more rows

get_sentiments("nrc") %>%
    filter(sentiment == "joy")

## # A tibble: 689 x 2
##             word sentiment
##            <chr>     <chr>
##  1    absolution       joy
##  2     abundance       joy
##  3      abundant       joy
##  4      accolade       joy
##  5 accompaniment       joy
##  6    accomplish       joy
##  7  accomplished       joy
##  8       achieve       joy
##  9   achievement       joy
## 10       acrobat       joy
## # ... with 679 more rows

The unnest_tokens package can now process html, xml, latex or man pages (using the hunspell package).

library(readr)

data_frame(text = read_lines("https://en.wikipedia.org/wiki/Pride_and_Prejudice_and_Zombies")) %>%
  unnest_tokens(word, text, format = "html")

## # A tibble: 2,804 x 1
##         word
##        <chr>
##  1     pride
##  2       and
##  3 prejudice
##  4       and
##  5   zombies
##  6 wikipedia
##  7     pride
##  8       and
##  9 prejudice
## 10       and
## # ... with 2,794 more rows
…
