Bootstrap confidence intervals for #TidyTuesday Super Bowl commercials | Julia Silge
…
We get statistical properties from this linear model, but we can use bootstrap resampling to get an estimate of the variance in our quantities. In tidymodels, the 
rsample package has functions to create resamples such as bootstraps.

library(rsample)
bootstraps(youtube, times = 1e3)

## # Bootstrap sampling
## # A tibble: 1,000 x 2
##    splits            id
##    <list>            <chr>
##  1 <split [247/91]>  Bootstrap0001
##  2 <split [247/100]> Bootstrap0002
##  3 <split [247/93]>  Bootstrap0003
##  4 <split [247/87]>  Bootstrap0004
##  5 <split [247/86]>  Bootstrap0005
##  6 <split [247/94]>  Bootstrap0006
##  7 <split [247/98]>  Bootstrap0007
##  8 <split [247/96]>  Bootstrap0008
##  9 <split [247/92]>  Bootstrap0009
## 10 <split [247/89]>  Bootstrap0010
## # … with 990 more rows
…
