Train and analyze many models for #TidyTuesday crop yields | Julia Silge
…
tidy_yields <- key_crop_yields %>%
  janitor::clean_names() %>%
  pivot_longer(wheat_tonnes_per_hectare:bananas_tonnes_per_hectare,
    names_to = "crop", values_to = "yield"
  ) %>%
  mutate(crop = str_remove(crop, "_tonnes_per_hectare")) %>%
  filter(
    crop %in% c("wheat", "rice", "maize", "barley"),
    entity %in% top_countries,
    !is.na(yield)
  )

tidy_yields

## # A tibble: 6,032 x 5
##    entity     code   year crop   yield
##    <chr>      <chr> <dbl> <chr>  <dbl>
##  1 Bangladesh BGD    1961 wheat  0.574
##  2 Bangladesh BGD    1961 rice   1.70 
##  3 Bangladesh BGD    1961 maize  0.799
##  4 Bangladesh BGD    1961 barley 0.577
##  5 Bangladesh BGD    1962 wheat  0.675
##  6 Bangladesh BGD    1962 rice   1.53 
##  7 Bangladesh BGD    1962 maize  0.738
##  8 Bangladesh BGD    1962 barley 0.544
##  9 Bangladesh BGD    1963 wheat  0.607
## 10 Bangladesh BGD    1963 rice   1.77 
## # … with 6,022 more rows
…
Notice that not all countries produce all crops, but that overall crop yields are increasing.

Many models

Now let’s fit a linear model to each country-crop combination.

library(tidymodels)

tidy_lm <- tidy_yields %>%
  nest(yields = c(year, yield)) %>%
  mutate(model = map(yields, ~ lm(yield ~ year, data = .x)))

tidy_lm

## # A tibble: 111 x 5
##    entity     code  crop   yields            model 
##    <chr>      <chr> <chr>  <list>            <list>
##  1 Bangladesh BGD   wheat  <tibble [58 × 2]> <lm>  
##  2 Bangladesh BGD   rice   <tibble [58 × 2]> <lm>  
##  3 Bangladesh BGD   maize  <tibble [58 × 2]> <lm>  
##  4 Bangladesh BGD   barley <tibble [58 × 2]> <lm>  
##  5 Brazil     BRA   wheat  <tibble [58 × 2]> <lm>  
##  6 Brazil     BRA   rice   <tibble [58 × 2]> <lm>  
##  7 Brazil     BRA   maize  <tibble [58 × 2]> <lm>  
##  8 Brazil     BRA   barley <tibble [58 × 2]> <lm>  
##  9 China      CHN   wheat  <tibble [58 × 2]> <lm>  
## 10 China      CHN   rice   <tibble [58 × 2]> <lm>  
## # … with 101 more rows

Next, let’s tidy() those models to get out the coefficients, and adjust the p-values for multiple comparisons while we’re at it.

slopes <- tidy_lm %>%
  mutate(coefs = map(model, tidy)) %>%
  unnest(coefs) %>%
  filter(term == "year") %>%
  mutate(p.value = p.adjust(p.value))

slopes

## # A tibble: 111 x 10
##    entity  code  crop  yields  model term  estimate std.error statistic  p.value
##    <chr>   <chr> <chr> <list>  <lis> <chr>    <dbl>     <dbl>     <dbl>    <dbl>
##  1 Bangla… BGD   wheat <tibbl… <lm>  year   0.0389   0.00253      15.4  5.11e-20
##  2 Bangla… BGD   rice  <tibbl… <lm>  year   0.0600   0.00231      26.0  6.05e-31
##  3 Bangla… BGD   maize <tibbl… <lm>  year   0.122    0.0107       11.3  1.82e-14
##  4 Bangla… BGD   barl… <tibbl… <lm>  year   0.00505  0.000596      8.47 4.34e-10
##  5 Brazil  BRA   wheat <tibbl… <lm>  year   0.0366   0.00222      16.5  2.55e-21
##  6 Brazil  BRA   rice  <tibbl… <lm>  year   0.0755   0.00490      15.4  4.96e-20
##  7 Brazil  BRA   maize <tibbl… <lm>  year   0.0709   0.00395      18.0  4.37e-23
##  8 Brazil  BRA   barl… <tibbl… <lm>  year   0.0466   0.00319      14.6  5.05e-19
##  9 China   CHN   wheat <tibbl… <lm>  year   0.0880   0.00141      62.6  1.72e-51
## 10 China   CHN   rice  <tibbl… <lm>  year   0.0843   0.00289      29.2  1.47e-33
## # … with 101 more rows
…
