Singing the Bayesian Beginner Blues | Julia Silge
…
That’s not… too awful, I hope. Remember, what this is supposed to be is our belief about the distribution of rates before evidence from individual states is taken into account. I would buy this in a general sense; there a few states that are mentioned many times and many states that are mentioned a few times.

And that’s it! We have a prior.

Calculating the Empirical Bayes Estimate

Now that we have a prior probability distribution, we use Bayes' theorem to calculate a posterior estimate for each state’s rate. It’s not very difficult math.

state_counts <- state_counts %>%
    mutate(rate_estimate = 1e6*(n + alpha0) / (pop2014 + alpha0 + beta0),
           rate = 1e6*rate)

state_counts

## # A tibble: 33 × 5
##    state_name  pop2014     n      rate rate_estimate
##        <fctr>    <dbl> <dbl>     <dbl>         <dbl>
## 1     Alabama  4817678    12 2.4908265     2.2473115
## 2     Arizona  6561516     4 0.6096152     0.6838013
## 3    Arkansas  2947036     1 0.3393240     0.5519852
## 4  California 38066920    34 0.8931639     0.8999236
## 5    Colorado  5197580     3 0.5771917     0.6730431
## 6     Florida 19361792     4 0.2065924     0.2552334
## 7     Georgia  9907756    22 2.2204826     2.1161297
## 8      Hawaii  1392704     6 4.3081660     2.9387203
## 9       Idaho  1599464     1 0.6252094     0.8315038
## 10   Illinois 12868747     6 0.4662459     0.5177696
## # ... with 23 more rows
…
Notice that the states that were mentioned the highest number of times are closest to the line, i.e., the empirical Bayes method here did not change the value that much. It is only for states that were mentioned in a few songs that the two values are quite different. Notice that the high rates were shifted to lower values and the low rates were shifted to (slightly) higher values.

What Is the Posterior Distribution for Each State?

We calculated an empirical Bayes estimate for each rate above, but we can actually calculate the full posterior probability distribution for each state. What are $\alpha$ and $\beta$ for each state?

state_counts <- state_counts %>%
    mutate(alpha1 = n + alpha0,
           beta1 = pop2014 - n + beta0)

state_counts

## # A tibble: 33 × 7
##    state_name  pop2014     n      rate rate_estimate    alpha1    beta1
##        <fctr>    <dbl> <dbl>     <dbl>         <dbl>     <dbl>    <dbl>
## 1     Alabama  4817678    12 2.4908265     2.2473115 13.212753  5879346
## 2     Arizona  6561516     4 0.6096152     0.6838013  5.212753  7623192
## 3    Arkansas  2947036     1 0.3393240     0.5519852  2.212753  4008715
## 4  California 38066920    34 0.8931639     0.8999236 35.212753 39128566
## 5    Colorado  5197580     3 0.5771917     0.6730431  4.212753  6259257
## 6     Florida 19361792     4 0.2065924     0.2552334  5.212753 20423468
## 7     Georgia  9907756    22 2.2204826     2.1161297 23.212753 10969414
## 8      Hawaii  1392704     6 4.3081660     2.9387203  7.212753  2454378
## 9       Idaho  1599464     1 0.6252094     0.8315038  2.212753  2661143
## 10   Illinois 12868747     6 0.4662459     0.5177696  7.212753 13930421
## # ... with 23 more rows
…
