Logistic regression modeling for #TidyTuesday US House Elections | Julia Silge
…
How many different political parties are represented in these elections?

house |> 
    count(party, sort = TRUE)

## # A tibble: 478 × 2
##    party                n
##    <chr>            <int>
##  1 DEMOCRAT          9908
##  2 REPUBLICAN        9705
##  3 <NA>              3858
##  4 LIBERTARIAN       2769
##  5 INDEPENDENT       1217
##  6 CONSERVATIVE       668
##  7 GREEN              513
##  8 NATURAL LAW        371
##  9 WORKING FAMILIES   283
## 10 LIBERAL            266
## # ℹ 468 more rows
…
We can use tidy() from the broom package to get the model coefficients into a tidy data frame.

library(broom)
tidy(house_mod)

## # A tibble: 53 × 5
##    term            estimate  std.error statistic p.value
##    <chr>              <dbl>      <dbl>     <dbl>   <dbl>
##  1 (Intercept)      2.99    0.00457        654.        0
##  2 partyREPUBLICAN -0.0796  0.0000624    -1276.        0
##  3 year            -0.00154 0.00000226    -681.        0
##  4 state_poAL       0.421   0.000650       648.        0
##  5 state_poAR       0.237   0.000689       343.        0
##  6 state_poAZ       0.150   0.000638       235.        0
##  7 state_poCA       0.127   0.000598       213.        0
##  8 state_poCO       0.102   0.000632       161.        0
##  9 state_poCT       0.0600  0.000644        93.2       0
## 10 state_poDC      -0.769   0.00225       -342.        0
## # ℹ 43 more rows
…
