Tune random forests for #TidyTuesday IKEA prices | Julia Silge
…
There are lots more great examples of #TidyTuesday EDA out there to explore on 
Twitter! Let’s do a bit of data preparation for modeling. There are still lots of NA values for furniture dimensions but we are going to impute those.

ikea_df <- ikea %>%
  select(price, name, category, depth, height, width) %>%
  mutate(price = log10(price)) %>%
  mutate_if(is.character, factor)

ikea_df

## # A tibble: 3,694 x 6
##    price name                  category      depth height width
##    <dbl> <fct>                 <fct>         <dbl>  <dbl> <dbl>
##  1  2.42 FREKVENS              Bar furniture    NA     99    51
##  2  3.00 NORDVIKEN             Bar furniture    NA    105    80
##  3  3.32 NORDVIKEN / NORDVIKEN Bar furniture    NA     NA    NA
##  4  1.84 STIG                  Bar furniture    50    100    60
##  5  2.35 NORBERG               Bar furniture    60     43    74
##  6  2.54 INGOLF                Bar furniture    45     91    40
##  7  2.11 FRANKLIN              Bar furniture    44     95    50
##  8  2.29 DALFRED               Bar furniture    50     NA    50
##  9  2.11 FRANKLIN              Bar furniture    44     95    50
## 10  3.34 EKEDALEN / EKEDALEN   Bar furniture    NA     NA    NA
## # â€¦ with 3,684 more rows
…
We can start by loading the tidymodels metapackage, splitting our data into training and testing sets, and creating resamples.

library(tidymodels)

set.seed(123)
ikea_split <- initial_split(ikea_df, strata = price)
ikea_train <- training(ikea_split)
ikea_test <- testing(ikea_split)

set.seed(234)
ikea_folds <- bootstraps(ikea_train, strata = price)
ikea_folds

## # Bootstrap sampling using stratification 
## # A tibble: 25 x 2
##    splits             id         
##    <list>             <chr>      
##  1 <split [2.8K/998]> Bootstrap01
##  2 <split [2.8K/1K]>  Bootstrap02
##  3 <split [2.8K/1K]>  Bootstrap03
##  4 <split [2.8K/1K]>  Bootstrap04
##  5 <split [2.8K/1K]>  Bootstrap05
##  6 <split [2.8K/1K]>  Bootstrap06
##  7 <split [2.8K/1K]>  Bootstrap07
##  8 <split [2.8K/1K]>  Bootstrap08
##  9 <split [2.8K/1K]>  Bootstrap09
## 10 <split [2.8K/1K]>  Bootstrap10
## # â€¦ with 15 more rows
…
