Reddit Responds to the Election | Julia Silge
…
Now we can use tidy from broom to pull out the slopes for each of these models and find the important ones.

library(broom)

slopes <- nested_models %>%
  unnest(map(models, tidy)) %>%
  filter(term == "created")

Which words decreased in frequency of use the fastest during Election Day? Which words increased in use the fastest?

slopes %>% 
    arrange(estimate)

## # A tibble: 891 × 6
##        word    term      estimate    std.error statistic       p.value
##       <chr>   <chr>         <dbl>        <dbl>     <dbl>         <dbl>
## 1   polling created -2.195136e-05 1.059199e-06 -20.72449  2.083382e-95
## 2     fraud created -2.022229e-05 1.335022e-06 -15.14753  7.866753e-52
## 3    voting created -1.788212e-05 5.644046e-07 -31.68316 2.651017e-220
## 4    ballot created -1.745250e-05 1.114699e-06 -15.65670  2.990299e-55
## 5        fl created -1.743009e-05 1.211878e-06 -14.38271  6.644389e-47
## 6   florida created -1.712721e-05 6.055286e-07 -28.28472 5.327752e-176
## 7      poll created -1.688132e-05 1.039083e-06 -16.24637  2.369894e-59
## 8     voter created -1.675932e-05 9.359359e-07 -17.90649  1.049562e-71
## 9     polls created -1.615500e-05 7.058145e-07 -22.88845 6.054992e-116
## 10 virginia created -1.493344e-05 1.435504e-06 -10.40293  2.404218e-25
## # ... with 881 more rows

slopes %>% 
    arrange(desc(estimate))

## # A tibble: 891 × 6
##        word    term     estimate    std.error statistic       p.value
##       <chr>   <chr>        <dbl>        <dbl>     <dbl>         <dbl>
## 1   trump’s created 1.758326e-05 1.430901e-06 12.288244  1.047563e-34
## 2      flex created 1.416875e-05 1.290926e-06 10.975647  5.004609e-28
## 3     elect created 1.390813e-05 8.378822e-07 16.599146  7.068929e-62
## 4        da created 1.281702e-05 1.037396e-06 12.354986  4.578350e-35
## 5  congress created 1.225188e-05 1.280413e-06  9.568696  1.082627e-21
## 6   trump's created 1.200055e-05 5.499216e-07 21.822297 1.425196e-105
## 7  policies created 1.156944e-05 1.276465e-06  9.063655  1.261512e-19
## 8  liberals created 1.151984e-05 1.151751e-06 10.002020  1.493199e-23
## 9   climate created 1.092999e-05 1.269681e-06  8.608452  7.405384e-18
## 10   policy created 9.879997e-06 1.038524e-06  9.513494  1.843631e-21
## # ... with 881 more rows
…
Let’s again use unnest, map, and tidy to extract out the slopes from the linear models.

slopes <- nested_models %>%
  unnest(map(models, tidy)) %>%
  filter(term == "created")

Which subreddits exhibited the biggest changes in sentiment, in either direction?

slopes %>% 
    arrange(estimate)

## # A tibble: 64 × 6
##            subreddit    term      estimate    std.error statistic     p.value
##                <chr>   <chr>         <dbl>        <dbl>     <dbl>       <dbl>
## 1        aznidentity created -2.941746e-06 1.129234e-06 -2.605081 0.040386018
## 2             ainbow created -2.576480e-06 8.841939e-07 -2.913932 0.017200835
## 3        TheBluePill created -2.233135e-06 6.868578e-07 -3.251233 0.009977663
## 4    muacjdiscussion created -2.165141e-06 4.838494e-07 -4.474823 0.020801581
## 5            parrots created -2.105393e-06 7.592753e-07 -2.772898 0.024188248
## 6         needadvice created -1.610350e-06 5.277117e-07 -3.051572 0.018542125
## 7        sweepstakes created -1.458346e-06 5.576759e-07 -2.615042 0.022590562
## 8  RandomActsofCards created -1.421334e-06 5.556567e-07 -2.557935 0.026616327
## 9       csgogambling created -1.397576e-06 5.619925e-07 -2.486823 0.027257440
## 10             1liga created -1.305359e-06 4.842398e-07 -2.695688 0.027255456
## # ... with 54 more rows

slopes %>% 
    arrange(desc(estimate))

## # A tibble: 64 × 6
##            subreddit    term     estimate    std.error statistic     p.value
##                <chr>   <chr>        <dbl>        <dbl>     <dbl>       <dbl>
## 1  shoudvebeenbernie created 2.792205e-06 7.339321e-07  3.804446 0.008921294
## 2        TheDickShow created 2.189643e-06 7.900087e-07  2.771670 0.019730686
## 3            orlando created 1.860757e-06 7.313366e-07  2.544324 0.034477936
## 4    DoesAnybodyElse created 1.846480e-06 5.773406e-07  3.198251 0.007657351
## 5    playrustservers created 1.553049e-06 5.623340e-07  2.761791 0.032776294
## 6    GoogleCardboard created 1.449634e-06 5.215326e-07  2.779565 0.032015397
## 7    morbidquestions created 1.423202e-06 4.865300e-07  2.925208 0.019138028
## 8          TrueDoTA2 created 1.388537e-06 3.592288e-07  3.865329 0.011816017
## 9        JapanTravel created 1.365982e-06 3.702370e-07  3.689479 0.005001422
## 10           editors created 1.253335e-06 4.080638e-07  3.071420 0.011812188
## # ... with 54 more rows
…
