Inference for #TidyTuesday aircraft and rank of Tuskegee airmen | Julia Silge
…
pilot_vs_rank <-
  airmen %>%
  filter(pilot_type %in% aircraft, rank_at_graduation %in% ranks) %>%
  specify(pilot_type ~ rank_at_graduation, success = "Twin engine")

set.seed(123)
bootstrapped <-
  pilot_vs_rank %>%
  generate(reps = 1000, type = "bootstrap")

bootstrapped

## Response: pilot_type (factor)
## Explanatory: rank_at_graduation (factor)
## # A tibble: 917,000 × 3
## # Groups:   replicate [1,000]
##    replicate pilot_type    rank_at_graduation
##        <int> <fct>         <fct>             
##  1         1 Single engine 2nd Lt            
##  2         1 Single engine 2nd Lt            
##  3         1 Twin engine   Flight Officer    
##  4         1 Single engine 2nd Lt            
##  5         1 Single engine 2nd Lt            
##  6         1 Twin engine   Flight Officer    
##  7         1 Single engine 2nd Lt            
##  8         1 Single engine 2nd Lt            
##  9         1 Twin engine   Flight Officer    
## 10         1 Twin engine   Flight Officer    
## # … with 916,990 more rows

set.seed(234)
permuted <-
  pilot_vs_rank %>%
  hypothesize(null = "independence") %>%
  generate(reps = 1000, type = "permute")

permuted

## Response: pilot_type (factor)
## Explanatory: rank_at_graduation (factor)
## Null Hypothesis: independence
## # A tibble: 917,000 × 3
## # Groups:   replicate [1,000]
##    pilot_type    rank_at_graduation replicate
##    <fct>         <fct>                  <int>
##  1 Single engine 2nd Lt                     1
##  2 Single engine 2nd Lt                     1
##  3 Single engine 2nd Lt                     1
##  4 Single engine 2nd Lt                     1
##  5 Single engine 2nd Lt                     1
##  6 Single engine 2nd Lt                     1
##  7 Single engine 2nd Lt                     1
##  8 Single engine 2nd Lt                     1
##  9 Single engine 2nd Lt                     1
## 10 Single engine 2nd Lt                     1
## # … with 916,990 more rows
…
