Predicting class membership for the #TidyTuesday Datasaurus Dozen | Julia Silge
…
Explore data

The 
Datasaurus Dozen dataset is a collection of 13 sets of x/y data that have very similar summary statistics but look very different when plotted. Our modeling goal is to predict which member of the “dozen” each point belongs to.

Let’s start by reading in the data from the 
datasauRus package.

library(tidyverse)
library(datasauRus)

datasaurus_dozen

## # A tibble: 1,846 x 3
##    dataset     x     y
##    <chr>   <dbl> <dbl>
##  1 dino     55.4  97.2
##  2 dino     51.5  96.0
##  3 dino     46.2  94.5
##  4 dino     42.8  91.4
##  5 dino     40.8  88.3
##  6 dino     38.7  84.9
##  7 dino     35.6  79.9
##  8 dino     33.1  77.6
##  9 dino     29.0  74.5
## 10 dino     26.2  71.4
## # … with 1,836 more rows
…
Build a model

Let’s start out by creating bootstrap resamples of the Datasaurus Dozen. Notice that we aren’t splitting into testing and training sets, so we won’t have an unbiased estimate of performance on new data. Instead, we will use these resamples to understand the dataset and multiclass models better.

library(tidymodels)

set.seed(123)
dino_folds <- datasaurus_dozen %>%
  mutate(dataset = factor(dataset)) %>%
  bootstraps()

dino_folds

## # Bootstrap sampling 
## # A tibble: 25 x 2
##    splits             id         
##    <list>             <chr>      
##  1 <split [1.8K/672]> Bootstrap01
##  2 <split [1.8K/689]> Bootstrap02
##  3 <split [1.8K/680]> Bootstrap03
##  4 <split [1.8K/674]> Bootstrap04
##  5 <split [1.8K/692]> Bootstrap05
##  6 <split [1.8K/689]> Bootstrap06
##  7 <split [1.8K/689]> Bootstrap07
##  8 <split [1.8K/695]> Bootstrap08
##  9 <split [1.8K/664]> Bootstrap09
## 10 <split [1.8K/671]> Bootstrap10
## # … with 15 more rows
…
Let’s fit the random forest model to the bootstrap resamples.

doParallel::registerDoParallel()
dino_rs <- fit_resamples(
  dino_wf,
  resamples = dino_folds,
  control = control_resamples(save_pred = TRUE)
)

dino_rs

## # Resampling results
## # Bootstrap sampling 
## # A tibble: 25 x 5
##    splits            id          .metrics       .notes         .predictions     
##    <list>            <chr>       <list>         <list>         <list>           
##  1 <split [1.8K/672… Bootstrap01 <tibble [2 × … <tibble [0 × … <tibble [672 × 1…
##  2 <split [1.8K/689… Bootstrap02 <tibble [2 × … <tibble [0 × … <tibble [689 × 1…
##  3 <split [1.8K/680… Bootstrap03 <tibble [2 × … <tibble [0 × … <tibble [680 × 1…
##  4 <split [1.8K/674… Bootstrap04 <tibble [2 × … <tibble [0 × … <tibble [674 × 1…
##  5 <split [1.8K/692… Bootstrap05 <tibble [2 × … <tibble [0 × … <tibble [692 × 1…
##  6 <split [1.8K/689… Bootstrap06 <tibble [2 × … <tibble [0 × … <tibble [689 × 1…
##  7 <split [1.8K/689… Bootstrap07 <tibble [2 × … <tibble [0 × … <tibble [689 × 1…
##  8 <split [1.8K/695… Bootstrap08 <tibble [2 × … <tibble [0 × … <tibble [695 × 1…
##  9 <split [1.8K/664… Bootstrap09 <tibble [2 × … <tibble [0 × … <tibble [664 × 1…
## 10 <split [1.8K/671… Bootstrap10 <tibble [2 × … <tibble [0 × … <tibble [671 × 1…
## # … with 15 more rows
…
The accuracy is not great; a multiclass problem like this, especially one with so many classes, is harder than a binary classification problem. There are so many possible wrong answers!

Since we saved the predictions with save_pred = TRUE we can compute other performance metrics. Notice that by default the positive predictive value (like accuracy) is macro-weighted for multiclass problems.

dino_rs %>%
  collect_predictions() %>%
  group_by(id) %>%
  ppv(dataset, .pred_class)

## # A tibble: 25 x 4
##    id          .metric .estimator .estimate
##    <chr>       <chr>   <chr>          <dbl>
##  1 Bootstrap01 ppv     macro          0.428
##  2 Bootstrap02 ppv     macro          0.431
##  3 Bootstrap03 ppv     macro          0.436
##  4 Bootstrap04 ppv     macro          0.418
##  5 Bootstrap05 ppv     macro          0.445
##  6 Bootstrap06 ppv     macro          0.413
##  7 Bootstrap07 ppv     macro          0.420
##  8 Bootstrap08 ppv     macro          0.423
##  9 Bootstrap09 ppv     macro          0.393
## 10 Bootstrap10 ppv     macro          0.429
## # … with 15 more rows
…
