Estimate change in #TidyTuesday CEO departures with bootstrap resampling | Julia Silge
…
Looks like proportionally more departures are involuntary over time, but that is what we’ll work on estimating. Let’s create a data set to use for modeling.

departures <- departures_raw %>%
  filter(departure_code < 9) %>%
  mutate(involuntary = if_else(departure_code %in% 3:4, "involuntary", "other")) %>%
  filter(fyear > 1995, fyear < 2019)

departures

## # A tibble: 6,942 x 20
##    dismissal_datase… coname  gvkey fyear co_per_rol exec_fullname departure_code
##                <dbl> <chr>   <dbl> <dbl>      <dbl> <chr>                  <dbl>
##  1            559043 SONICB… 27903  2002         -1 L. Gregory B…              7
##  2                12 AMERIC…  1045  1997          1 Robert L. Cr…              5
##  3                13 AMERIC…  1045  2002          3 Donald J. Ca…              3
##  4                31 ABBOTT…  1078  1998          6 Duane L. Bur…              5
##  5                43 ADVANC…  1161  2001         11 Walter Jerem…              5
##  6                51 AETNA …  1177  1997         16 Ronald Edwar…              5
##  7                63 AHMANS…  1194  1997         22 Charles R. R…              7
##  8                65 AIR PR…  1209  2000         28 Harold A. Wa…              5
##  9                76 ALBERT…  1239  2007         34 Howard B. Be…              5
## 10                78 ALBERT…  1240  2000         38 Gary Glenn M…              3
## # … with 6,932 more rows, and 13 more variables: ceo_dismissal <dbl>,
## #   interim_coceo <chr>, tenure_no_ceodb <dbl>, max_tenure_ceodb <dbl>,
## #   fyear_gone <dbl>, leftofc <dttm>, still_there <chr>, notes <chr>,
## #   sources <chr>, eight_ks <chr>, cik <dbl>, _merge <chr>, involuntary <chr>
…
When we use exponentiate = TRUE, we get the model coefficients on the linear scale instead of the logistic scale.

What we want to do is fit a model like this a whole bunch of times, instead of just once. Let’s create bootstrap resamples.

library(rsample)

set.seed(123)
ceo_folds <- bootstraps(departures, times = 1e3)
ceo_folds

## # Bootstrap sampling 
## # A tibble: 1,000 x 2
##    splits              id           
##    <list>              <chr>        
##  1 <split [6942/2543]> Bootstrap0001
##  2 <split [6942/2557]> Bootstrap0002
##  3 <split [6942/2509]> Bootstrap0003
##  4 <split [6942/2554]> Bootstrap0004
##  5 <split [6942/2542]> Bootstrap0005
##  6 <split [6942/2530]> Bootstrap0006
##  7 <split [6942/2509]> Bootstrap0007
##  8 <split [6942/2553]> Bootstrap0008
##  9 <split [6942/2586]> Bootstrap0009
## 10 <split [6942/2625]> Bootstrap0010
## # … with 990 more rows
…
  mod <- glm(cbind(involuntary, other) ~ fyear, data = df, family = "binomial")
  tidy(mod, exponentiate = TRUE)
}

We can apply that function to all our bootstrap resamples with purrr::map().

boot_models <- ceo_folds %>% mutate(coef_info = map(splits, fit_binom))
boot_models

## # Bootstrap sampling 
## # A tibble: 1,000 x 3
##    splits              id            coef_info       
##    <list>              <chr>         <list>          
##  1 <split [6942/2543]> Bootstrap0001 <tibble [2 × 5]>
##  2 <split [6942/2557]> Bootstrap0002 <tibble [2 × 5]>
##  3 <split [6942/2509]> Bootstrap0003 <tibble [2 × 5]>
##  4 <split [6942/2554]> Bootstrap0004 <tibble [2 × 5]>
##  5 <split [6942/2542]> Bootstrap0005 <tibble [2 × 5]>
##  6 <split [6942/2530]> Bootstrap0006 <tibble [2 × 5]>
##  7 <split [6942/2509]> Bootstrap0007 <tibble [2 × 5]>
##  8 <split [6942/2553]> Bootstrap0008 <tibble [2 × 5]>
##  9 <split [6942/2586]> Bootstrap0009 <tibble [2 × 5]>
## 10 <split [6942/2625]> Bootstrap0010 <tibble [2 × 5]>
## # … with 990 more rows
…
