Song Lyrics Across the United States | Julia Silge
…
Finding the State Names in the Song Lyrics

Now we need to find the mentions of each state as they appear in these song lyrics. State names are one or two words, so we will use unnest_tokens from the 
tidytext package, but we will do it twice. First, we’ll unnest looking for single words and then we’ll unnest making bigrams, all the combination of two words in the song lyrics. We will bind these two data frames together with all the possible words and bigrams that might contain state names.

library(tidytext)
tidy_lyrics <- bind_rows(song_lyrics %>% 
                             unnest_tokens(state_name, Lyrics),
                         song_lyrics %>% 
                             unnest_tokens(state_name, Lyrics, 
                                           token = "ngrams", n = 2))
tidy_lyrics

## # A tibble: 3,201,196 × 6
##     Rank        Song                        Artist  Year Source
##    <int>       <chr>                         <chr> <int>  <int>
## 1      1 wooly bully sam the sham and the pharaohs  1965      3
## 2      1 wooly bully sam the sham and the pharaohs  1965      3
## 3      1 wooly bully sam the sham and the pharaohs  1965      3
## 4      1 wooly bully sam the sham and the pharaohs  1965      3
## 5      1 wooly bully sam the sham and the pharaohs  1965      3
## 6      1 wooly bully sam the sham and the pharaohs  1965      3
## 7      1 wooly bully sam the sham and the pharaohs  1965      3
## 8      1 wooly bully sam the sham and the pharaohs  1965      3
## 9      1 wooly bully sam the sham and the pharaohs  1965      3
## 10     1 wooly bully sam the sham and the pharaohs  1965      3
##       state_name
##            <chr>
## 1            sam
## 2            the
## 3           sham
## 4  miscellaneous
## 5          wooly
## 6          bully
## 7          wooly
## 8          bully
## 9            sam
## 10           the
## # ... with 3,201,186 more rows

The variable state_name in this data frame contains all the possible words and bigrams that might be state names in all the lyrics.

Now we can use an inner join to find all the state names that are actually there.

inner_join(tidy_lyrics, pop_df)

## # A tibble: 526 × 7
##     Rank               Song         Artist  Year Source state_name
##    <int>              <chr>          <chr> <int>  <int>      <chr>
## 1     12   king of the road   roger miller  1965      1      maine
## 2     29 eve of destruction  barry mcguire  1965      1    alabama
## 3     49   california girls the beach boys  1965      3 california
## 4     49   california girls the beach boys  1965      3 california
## 5     49   california girls the beach boys  1965      3 california
## 6     49   california girls the beach boys  1965      3 california
## 7     49   california girls the beach boys  1965      3 california
## 8     49   california girls the beach boys  1965      3 california
## 9     49   california girls the beach boys  1965      3 california
## 10    49   california girls the beach boys  1965      3 california
##     pop2014
##       <dbl>
## 1   1328535
## 2   4817678
## 3  38066920
## 4  38066920
## 5  38066920
## 6  38066920
## 7  38066920
## 8  38066920
## 9  38066920
## 10 38066920
## # ... with 516 more rows

Let’s only count each state once per song that it is mentioned in.

tidy_lyrics <- inner_join(tidy_lyrics, pop_df) %>%
    distinct(Rank, Song, Artist, Year, state_name, .keep_all = TRUE)

tidy_lyrics

## # A tibble: 253 × 7
##     Rank                          Song                         Artist
##    <int>                         <chr>                          <chr>
## 1     12              king of the road                   roger miller
## 2     29            eve of destruction                  barry mcguire
## 3     49              california girls                 the beach boys
## 4     10            california dreamin           the mamas  the papas
## 5     77            message to michael                 dionne warwick
## 6     61             california nights                    lesley gore
## 7      4 sittin on the dock of the bay                   otis redding
## 8     10                    tighten up        archie bell  the drells
## 9     25                      get back the beatles with billy preston
## 10    25                      get back the beatles with billy preston
##     Year Source state_name  pop2014
##    <int>  <int>      <chr>    <dbl>
## 1   1965      1      maine  1328535
## 2   1965      1    alabama  4817678
## 3   1965      3 california 38066920
## 4   1966      3 california 38066920
## 5   1966      1   kentucky  4383272
## 6   1967      1 california 38066920
## 7   1968      1    georgia  9907756
## 8   1968      3      texas 26092033
## 9   1969      3    arizona  6561516
## 10  1969      3 california 38066920
## # ... with 243 more rows

Calculating Counts

Let’s count these up now!

state_counts <- tidy_lyrics %>% 
    group_by(state_name) %>% 
    summarise(n = n()) %>% 
    arrange(desc(n))

state_counts

## # A tibble: 33 × 2
##     state_name     n
##          <chr> <int>
## 1     new york    64
## 2   california    34
## 3      georgia    22
## 4    tennessee    14
## 5        texas    14
## 6      alabama    12
## 7  mississippi    10
## 8     kentucky     7
## 9       hawaii     6
## 10    illinois     6
## # ... with 23 more rows
…
