Introducing tidylo | Julia Silge
…
library(tidyverse)
library(babynames)

top_names <- babynames %>%
    filter(year >= 1950,
           year < 1990) %>%
    mutate(decade = (year %/% 10) * 10,
           decade = paste0(decade, "s")) %>%
    group_by(decade) %>%
    count(name, wt = n, sort = TRUE) %>%
    ungroup

top_names

## # A tibble: 100,527 x 3
##    decade name         n
##    <chr>  <chr>    <int>
##  1 1950s  James   846042
##  2 1950s  Michael 839459
##  3 1960s  Michael 836934
##  4 1950s  Robert  832336
##  5 1950s  John    799658
##  6 1950s  David   771242
##  7 1960s  David   736583
##  8 1960s  John    716284
##  9 1970s  Michael 712722
## 10 1960s  James   687905
## # … with 100,517 more rows

Now let’s use the bind_log_odds() function from the tidylo package to find the weighted log odds for each name. What are the highest log odds names for these decades?

library(tidylo)

name_log_odds <- top_names %>%
  bind_log_odds(decade, name, n) 

name_log_odds %>%
  arrange(-log_odds)

## # A tibble: 100,527 x 4
##    decade name          n log_odds
##    <chr>  <chr>     <int>    <dbl>
##  1 1980s  Ashley   357385     477.
##  2 1980s  Jessica  471493     457.
##  3 1950s  Linda    565481     414.
##  4 1980s  Joshua   399131     412.
##  5 1980s  Amanda   370873     391.
##  6 1970s  Jason    465402     374.
##  7 1980s  Justin   291843     363.
##  8 1950s  Deborah  431302     348.
##  9 1980s  Brandon  234294     331.
## 10 1970s  Jennifer 583692     330.
## # … with 100,517 more rows
…
