Get started with tidymodels and #TidyTuesday Palmer penguins | Julia Silge
…
Here is the code I used in the video, for those who prefer reading instead of or in addition to video.

Explore the data

This week’s #TidyTuesday dataset is from 
palmerpenguins, observations of Antarctic penguins who live on the Palmer Archipelago. You can read more about how this dataset came to be in 
this post on the RStudio Education blog. Our modeling goal here is to predict 
the sex of the penguins using a classification model, based on other observations in the dataset.

library(tidyverse)
library(palmerpenguins)

penguins

## # A tibble: 344 x 8
##    species island bill_length_mm bill_depth_mm flipper_length_…
##    <fct>   <fct>           <dbl>         <dbl>            <int>
##  1 Adelie  Torge…           39.1          18.7              181
##  2 Adelie  Torge…           39.5          17.4              186
##  3 Adelie  Torge…           40.3          18                195
##  4 Adelie  Torge…           NA            NA                 NA
##  5 Adelie  Torge…           36.7          19.3              193
##  6 Adelie  Torge…           39.3          20.6              190
##  7 Adelie  Torge…           38.9          17.8              181
##  8 Adelie  Torge…           39.2          19.6              195
##  9 Adelie  Torge…           34.1          18.1              193
## 10 Adelie  Torge…           42            20.2              190
## # … with 334 more rows, and 3 more variables: body_mass_g <int>,
## #   sex <fct>, year <int>
…
library(tidymodels)

set.seed(123)
penguin_split <- initial_split(penguins_df, strata = sex)
penguin_train <- training(penguin_split)
penguin_test <- testing(penguin_split)

Next, let’s create bootstrap resamples of the training data, to evaluate our models.

set.seed(123)
penguin_boot <- bootstraps(penguin_train)
penguin_boot

## # Bootstrap sampling 
## # A tibble: 25 x 2
##    splits           id         
##    <list>           <chr>      
##  1 <split [250/93]> Bootstrap01
##  2 <split [250/92]> Bootstrap02
##  3 <split [250/90]> Bootstrap03
##  4 <split [250/92]> Bootstrap04
##  5 <split [250/86]> Bootstrap05
##  6 <split [250/88]> Bootstrap06
##  7 <split [250/96]> Bootstrap07
##  8 <split [250/89]> Bootstrap08
##  9 <split [250/96]> Bootstrap09
## 10 <split [250/90]> Bootstrap10
## # … with 15 more rows
…
Now we can add a model, and the fit to each of the resamples. First, we can fit the logistic regression model.

glm_rs <- penguin_wf %>%
  add_model(glm_spec) %>%
  fit_resamples(
    resamples = penguin_boot,
    control = control_resamples(save_pred = TRUE)
  )

glm_rs

## # Resampling results
## # Bootstrap sampling 
## # A tibble: 25 x 5
##    splits        id        .metrics       .notes       .predictions   
##    <list>        <chr>     <list>         <list>       <list>         
##  1 <split [250/… Bootstra… <tibble [2 × … <tibble [0 … <tibble [93 × …
##  2 <split [250/… Bootstra… <tibble [2 × … <tibble [0 … <tibble [92 × …
##  3 <split [250/… Bootstra… <tibble [2 × … <tibble [0 … <tibble [90 × …
##  4 <split [250/… Bootstra… <tibble [2 × … <tibble [0 … <tibble [92 × …
##  5 <split [250/… Bootstra… <tibble [2 × … <tibble [0 … <tibble [86 × …
##  6 <split [250/… Bootstra… <tibble [2 × … <tibble [0 … <tibble [88 × …
##  7 <split [250/… Bootstra… <tibble [2 × … <tibble [0 … <tibble [96 × …
##  8 <split [250/… Bootstra… <tibble [2 × … <tibble [0 … <tibble [89 × …
##  9 <split [250/… Bootstra… <tibble [2 × … <tibble [0 … <tibble [96 × …
## 10 <split [250/… Bootstra… <tibble [2 × … <tibble [0 … <tibble [90 × …
## # … with 15 more rows

Second, we can fit the random forest model.

rf_rs <- penguin_wf %>%
  add_model(rf_spec) %>%
  fit_resamples(
    resamples = penguin_boot,
    control = control_resamples(save_pred = TRUE)
  )

rf_rs

## # Resampling results
## # Bootstrap sampling 
## # A tibble: 25 x 5
##    splits        id        .metrics       .notes       .predictions   
##    <list>        <chr>     <list>         <list>       <list>         
##  1 <split [250/… Bootstra… <tibble [2 × … <tibble [0 … <tibble [93 × …
##  2 <split [250/… Bootstra… <tibble [2 × … <tibble [0 … <tibble [92 × …
##  3 <split [250/… Bootstra… <tibble [2 × … <tibble [0 … <tibble [90 × …
##  4 <split [250/… Bootstra… <tibble [2 × … <tibble [0 … <tibble [92 × …
##  5 <split [250/… Bootstra… <tibble [2 × … <tibble [0 … <tibble [86 × …
##  6 <split [250/… Bootstra… <tibble [2 × … <tibble [0 … <tibble [88 × …
##  7 <split [250/… Bootstra… <tibble [2 × … <tibble [0 … <tibble [96 × …
##  8 <split [250/… Bootstra… <tibble [2 × … <tibble [0 … <tibble [89 × …
##  9 <split [250/… Bootstra… <tibble [2 × … <tibble [0 … <tibble [96 × …
## 10 <split [250/… Bootstra… <tibble [2 × … <tibble [0 … <tibble [90 × …
## # … with 15 more rows
…
