Build a #TidyTuesday predictive text model for The Last Airbender | Julia Silge
…
Here is the code I used in the video, for those who prefer reading instead of or in addition to video.

Explore the data

This week’s #TidyTuesday dataset is from 
episodes of Avatar: The Last Airbender, which is a popular show at my house for sure! Our modeling goal is to predict the speaker of each line of dialogue.

library(tidyverse)
avatar_raw <- read_csv("https://raw.githubusercontent.com/rfordatascience/tidytuesday/master/data/2020/2020-08-11/avatar.csv")

avatar_raw %>%
  count(character, sort = TRUE)

## # A tibble: 374 x 2
##    character             n
##    <chr>             <int>
##  1 Scene Description  3393
##  2 Aang               1796
##  3 Sokka              1639
##  4 Katara             1437
##  5 Zuko                776
##  6 Toph                507
##  7 Iroh                337
##  8 Azula               211
##  9 Jet                 134
## 10 Suki                114
## # … with 364 more rows
…
juice(avatar_prep)

## # A tibble: 2,694 x 14
##    aang  textfeature_tex… textfeature_tex… textfeature_tex…
##    <fct>            <dbl>            <dbl>            <dbl>
##  1 Aang            -0.363           -0.358         -0.471  
##  2 Aang            -0.645           -0.694         -0.582  
##  3 Aang            -0.363           -0.358         -0.337  
##  4 Aang            -0.645           -0.694         -0.626  
##  5 Aang            -0.645           -0.694         -0.715  
##  6 Aang            -0.269           -0.246         -0.293  
##  7 Aang            -0.645           -0.694         -0.648  
##  8 Aang             0.107            0.202          0.0849 
##  9 Aang            -0.833           -0.918         -0.870  
## 10 Aang            -0.175           -0.134         -0.00397
## # … with 2,684 more rows, and 10 more variables:
## #   textfeature_text_n_uq_charS <dbl>,
## #   textfeature_text_n_digits <dbl>, textfeature_text_n_commas <dbl>,
## #   textfeature_text_n_periods <dbl>,
## #   textfeature_text_n_exclaims <dbl>,
## #   textfeature_text_n_extraspaces <dbl>,
## #   textfeature_text_n_caps <dbl>, textfeature_text_n_lowers <dbl>,
## #   textfeature_text_n_nonasciis <dbl>,
## #   textfeature_text_n_puncts <dbl>
…
