Use OpenAI text embeddings with #TidyTuesday horror movie descriptions | Julia Silge
…
embeddings <- content(resp, as = "text", encoding = "UTF-8") %>%
  jsonlite::fromJSON(flatten = TRUE) %>%
  pluck("data", "embedding")

This API call costs a couple of cents, as best as I can tell. If you don’t want to call the OpenAI API directly, you can use the 
openai R package. Let’s add these embeddings as a new column with the horror movie data.

horror_embeddings <-
  horror_movies %>%
  mutate(embeddings = embeddings)

horror_embeddings %>%
  select(id, original_title, embeddings)

## # A tibble: 1,000 × 3
##        id original_title              embeddings   
##     <dbl> <chr>                       <list>       
##  1 751453 Sushi Night                 <dbl [1,536]>
##  2 753328 Spout                       <dbl [1,536]>
##  3 696605 What Josiah Saw             <dbl [1,536]>
##  4  46020 Sharktopus                  <dbl [1,536]>
##  5 217787 Paranormal Whacktivity      <dbl [1,536]>
##  6 698676 Dark Web: Mystery Box       <dbl [1,536]>
##  7  14229 Ti piace Hitchcock?         <dbl [1,536]>
##  8 364094 Fun Size Horror: Volume Two <dbl [1,536]>
##  9 476484 Before I Die                <dbl [1,536]>
## 10 407626 Ozark Sharks                <dbl [1,536]>
## # ℹ 990 more rows
…
## # A tibble: 1 × 2
##   title      overview                                                           
##   <chr>      <chr>                                                              
## 1 Sharktopus "The U.S. Navy's special group \"Blue Water\" builds a half-shark,…

Sharktopus!!! 🦈🐙

Let’s pull out the similarity scores relative to this movie:

enframe(embeddings_similarity[4,], name = "movie", value = "similarity") %>%
  arrange(-similarity)

## # A tibble: 1,000 × 2
##    movie similarity
##    <int>      <dbl>
##  1     4      1    
##  2   935      0.857
##  3   379      0.849
##  4   380      0.847
##  5   533      0.841
##  6   898      0.840
##  7   605      0.837
##  8   914      0.826
##  9   745      0.825
## 10   849      0.825
## # ℹ 990 more rows
…
