Practice using lubridate... THEATRICALLY | Julia Silge
…
library(tidyverse)

json_path <- "https://londonstagedatabase.usu.edu/downloads/LondonStageJSON.zip"
download.file(json_path, "LondonStageJSON.zip")
unzip("LondonStageJSON.zip")
london_stage_raw <- jsonlite::fromJSON("LondonStageFull.json") %>%
    as_tibble()

Finding the dates

There are thirteen columns in this data. Let’s take a moment and look at the column names and content of the first few lines. Which of these columns contains the date informaiton?

london_stage_raw

## # A tibble: 52,617 x 13
##    EventId EventDate TheatreCode Season Volume Hathi CommentC TheatreId
##    <chr>   <chr>     <chr>       <chr>  <chr>  <chr> <chr>    <chr>    
##  1 0       16591029  city        1659-… 1      ""    The <i>… 63       
##  2 1       16591100  mt          1659-… 1      ""    On 23 N… 206      
##  3 2       16591218  none        1659-… 1      ""    Represe… 1        
##  4 3       16600200  mt          1659-… 1      ""    6 Feb. … 206      
##  5 4       16600204  cockpit     1659-… 1      ""    $Thomas… 73       
##  6 5       16600328  dh          1659-… 1      ""    At <i>D… 90       
##  7 6       16600406  none        1659-… 1      ""    ""       1        
##  8 7       16600412  vh          1659-… 1      ""    Edition… 319      
##  9 8       16600413  fh          1659-… 1      ""    <i>The … 116      
## 10 9       16600416  none        1659-… 1      ""    ""       1        
## # … with 52,607 more rows, and 5 more variables: Phase2 <chr>,
## #   Phase1 <chr>, CommentCClean <chr>, BookPDF <chr>, Performances <list>
…
Getting years and months

This dataset on the London stage spans more than a century. How can we look at the distribution of stage events over the years? The lubridate package contains functions like year() that let us get year components of a date.

year(today())

## [1] 2019

Let’s count up the stage events by year in this dataset.

london_stage %>%
    mutate(EventYear = year(EventDate)) %>%
    count(EventYear)

## # A tibble: 142 x 2
##    EventYear     n
##        <dbl> <int>
##  1      1659     2
##  2      1660    58
##  3      1661   138
##  4      1662    91
##  5      1663    68
##  6      1664    53
##  7      1665    20
##  8      1666    30
##  9      1667   149
## 10      1668   147
## # … with 132 more rows
…
Let’s look at the individual theaters (tabulated in TheatreId) and see how long individual theaters tend to be in operation.

london_by_theater <- london_stage %>%
    filter(TheatreCode != "none") %>% 
    group_by(TheatreCode) %>%
    summarise(TotalEvents = n(),
              MinDate = min(EventDate),
              MaxDate = max(EventDate),
              TimeSpan = as.duration(MaxDate - MinDate)) %>%
    arrange(-TotalEvents)

london_by_theater

## # A tibble: 233 x 5
##    TheatreCode TotalEvents MinDate    MaxDate   
##    <chr>             <int> <date>     <date>    
##  1 dl                18451 1674-03-26 1800-06-18
##  2 cg                12826 1662-05-09 1800-06-16
##  3 hay                5178 1720-12-29 1800-09-16
##  4 king's             4299 1714-10-23 1800-08-02
##  5 lif                4117 1661-06-28 1745-10-07
##  6 gf                 1832 1729-10-31 1772-10-23
##  7 queen's             884 1705-04-09 1714-06-23
##  8 marly               403 1750-08-16 1776-08-10
##  9 bf                  257 1661-08-22 1767-09-07
## 10 dg                  235 1671-06-26 1706-11-28
## # … with 223 more rows, and 1 more variable: TimeSpan <Duration>
…
We have an error! 🙀 This “duration” class is good for adding and subtracting dates, but less good once we want to go about plotting or doing math with other kinds of data (like, say, the number of total events). We need to coerce this to something more useful, now that we’re done subtracting the dates.

Data that is being stored as a duration can be coerced with as.numeric(), and you can send another argument to say what kind of time increment you want back. For example, what if we want the number of years that each of these theaters was in operation in this dataset?

london_by_theater %>%
    mutate(TimeSpan = as.numeric(TimeSpan, "year"))

## # A tibble: 233 x 5
##    TheatreCode TotalEvents MinDate    MaxDate    TimeSpan
##    <chr>             <int> <date>     <date>        <dbl>
##  1 dl                18451 1674-03-26 1800-06-18   126.  
##  2 cg                12826 1662-05-09 1800-06-16   138.  
##  3 hay                5178 1720-12-29 1800-09-16    79.7 
##  4 king's             4299 1714-10-23 1800-08-02    85.8 
##  5 lif                4117 1661-06-28 1745-10-07    84.3 
##  6 gf                 1832 1729-10-31 1772-10-23    43.0 
##  7 queen's             884 1705-04-09 1714-06-23     9.20
##  8 marly               403 1750-08-16 1776-08-10    26.0 
##  9 bf                  257 1661-08-22 1767-09-07   106.  
## 10 dg                  235 1671-06-26 1706-11-28    35.4 
## # … with 223 more rows

A number of these theaters had events for over a century!

If we wanted to see the number of months that each theater had events, we would change the argument.

london_by_theater %>%
    mutate(TimeSpan = as.numeric(TimeSpan, "month"))

## # A tibble: 233 x 5
##    TheatreCode TotalEvents MinDate    MaxDate    TimeSpan
##    <chr>             <int> <date>     <date>        <dbl>
##  1 dl                18451 1674-03-26 1800-06-18    1515.
##  2 cg                12826 1662-05-09 1800-06-16    1657.
##  3 hay                5178 1720-12-29 1800-09-16     957.
##  4 king's             4299 1714-10-23 1800-08-02    1029.
##  5 lif                4117 1661-06-28 1745-10-07    1011.
##  6 gf                 1832 1729-10-31 1772-10-23     516.
##  7 queen's             884 1705-04-09 1714-06-23     110.
##  8 marly               403 1750-08-16 1776-08-10     312.
##  9 bf                  257 1661-08-22 1767-09-07    1272.
## 10 dg                  235 1671-06-26 1706-11-28     425.
## # … with 223 more rows
…
