Scraping CRAN with rvest | Julia Silge
…
pkgs_raw <- pkgs_raw[,-1]

pkgs <- pkgs_raw %>%
    filter(Size != "-",
           str_detect(Name, "tar.gz$")) %>%
    mutate(Date = dmy_hm(`Last modified`),
           Name = str_extract(Name, "^[^_]+(?=_)")) %>%
    select(-Size, -Description) %>%
    as_tibble()

pkgs

## # A tibble: 10,211 × 3
##            Name   `Last modified`                Date
##           <chr>             <chr>              <dttm>
## 1            A3 16-Aug-2015 21:05 2015-08-16 21:05:00
## 2       ABC.RAP 20-Oct-2016 08:52 2016-10-20 08:52:00
## 3   ABCanalysis 23-Aug-2016 12:57 2016-08-23 12:57:00
## 4      ABCoptim 17-Nov-2016 09:04 2016-11-17 09:04:00
## 5         ABCp2 04-Feb-2016 10:27 2016-02-04 10:27:00
## 6  ABHgenotypeR 04-Feb-2016 10:27 2016-02-04 10:27:00
## 7           ACA 10-Mar-2016 16:55 2016-03-10 16:55:00
## 8        ACCLMA 29-Oct-2012 12:13 2012-10-29 12:13:00
## 9           ACD 31-Oct-2013 19:59 2013-10-31 19:59:00
## 10         ACDm 16-Jul-2016 10:19 2016-07-16 10:19:00
## # ... with 10,201 more rows
…
archives_raw <- archives_raw[,-1]

archives_processed <- archives_raw %>%
    filter(str_detect(Name, "/$")) %>%
    mutate(Date = dmy_hm(`Last modified`),
           Name = str_sub(Name, end = -2)) %>%
    select(-Size, -Description) %>%
    as_tibble()

archives_processed

## # A tibble: 8,897 × 3
##            Name   `Last modified`                Date
##           <chr>             <chr>              <dttm>
## 1            A3 16-Aug-2015 21:05 2015-08-16 21:05:00
## 2   ABCExtremes 19-Jun-2015 11:26 2015-06-19 11:26:00
## 3   ABCanalysis 23-Aug-2016 12:57 2016-08-23 12:57:00
## 4      ABCoptim 17-Nov-2016 09:04 2016-11-17 09:04:00
## 5         ABCp2 01-Jul-2015 06:12 2015-07-01 06:12:00
## 6  ABHgenotypeR 04-Feb-2016 10:27 2016-02-04 10:27:00
## 7           ACD 31-Oct-2013 19:59 2013-10-31 19:59:00
## 8          ACDm 16-Jul-2016 10:19 2016-07-16 10:19:00
## 9          ACEt 18-Nov-2016 21:19 2016-11-18 21:19:00
## 10         ACNE 27-Oct-2015 07:09 2015-10-27 07:09:00
## # ... with 8,887 more rows
…
This is exactly what we need: the dates that the packages were released and how many times they have been released. Let’s use mutate and map again to extract these values.

archives <- archives_scraped %>%
    mutate(Date = dmy_hm(map_chr(page, ~ .[8])),
           ArchivedVersions = map_dbl(page, ~ length(.) / 5 - 1)) %>%
    select(-page)

archives

## # A tibble: 8,897 × 4
##            Name   `Last modified`                Date ArchivedVersions
##           <chr>             <chr>              <dttm>            <dbl>
## 1            A3 16-Aug-2015 21:05 2013-02-07 09:00:00                2
## 2   ABCExtremes 19-Jun-2015 11:26 2013-05-15 08:45:00                1
## 3   ABCanalysis 23-Aug-2016 12:57 2015-04-20 15:40:00                5
## 4      ABCoptim 17-Nov-2016 09:04 2013-11-05 17:00:00                2
## 5         ABCp2 01-Jul-2015 06:12 2013-04-10 15:04:00                2
## 6  ABHgenotypeR 04-Feb-2016 10:27 2016-01-21 07:26:00                1
## 7           ACD 31-Oct-2013 19:59 2012-11-27 06:43:00                2
## 8          ACDm 16-Jul-2016 10:19 2015-07-16 12:24:00                2
## 9          ACEt 18-Nov-2016 21:19 2016-02-14 17:48:00                7
## 10         ACNE 27-Oct-2015 07:09 2011-09-16 17:43:00                4
## # ... with 8,887 more rows
…
all_pkgs

## # A tibble: 11,489 × 6
##           Name   `Last modified`                Date ArchivedVersions Archived Versions
##          <chr>             <chr>              <dttm>            <dbl>    <lgl>    <dbl>
## 1           A3 16-Aug-2015 21:05 2013-02-07 09:00:00                2    FALSE        3
## 2         aaMI 30-Jul-2010 12:17 2005-06-24 15:55:00                2     TRUE        2
## 3       abbyyR 20-Jun-2016 15:32 2015-06-12 04:43:00                7    FALSE        8
## 4          abc 05-May-2015 09:34 2010-10-05 08:45:00               10    FALSE       11
## 5     abc.data 05-May-2015 09:34 2015-05-05 09:34:00                0    FALSE        1
## 6      ABC.RAP 20-Oct-2016 08:52 2016-10-20 08:52:00                0    FALSE        1
## 7  ABCanalysis 23-Aug-2016 12:57 2015-04-20 15:40:00                5    FALSE        6
## 8     abcdeFBA 15-Sep-2012 13:13 2011-11-05 10:48:00                3    FALSE        4
## 9  ABCExtremes 19-Jun-2015 11:26 2013-05-15 08:45:00                1     TRUE        1
## 10    ABCoptim 17-Nov-2016 09:04 2013-11-05 17:00:00                2    FALSE        3
## # ... with 11,479 more rows
…
