Topic modeling for #TidyTuesday Spice Girls lyrics | Julia Silge
…
How many albums and songs are there in this dataset?

lyrics %>% distinct(album_name)

## # A tibble: 3 × 1
##   album_name
##   <chr>     
## 1 Spice     
## 2 Spiceworld
## 3 Forever

lyrics %>% distinct(album_name, song_name)

## # A tibble: 31 × 2
##    album_name song_name                 
##    <chr>      <chr>                     
##  1 Spice      "Wannabe"                 
##  2 Spice      "Say You\x92ll Be There"  
##  3 Spice      "2 Become 1"              
##  4 Spice      "Love Thing"              
##  5 Spice      "Last Time Lover"         
##  6 Spice      "Mama"                    
##  7 Spice      "Who Do You Think You Are"
##  8 Spice      "Something Kinda Funny"   
##  9 Spice      "Naked"                   
## 10 Spice      "If U Can\x92t Dance"     
## # … with 21 more rows
…
library(tidytext)

tidy_lyrics <-
  lyrics %>%
  mutate(song_name = str_replace_all(song_name, "\x92", "'")) %>%
  unnest_tokens(word, line) %>%
  anti_join(get_stopwords())

What are the most common words in these songs after removing stop words?

tidy_lyrics %>%
  count(word, sort = TRUE)

## # A tibble: 979 × 2
##    word      n
##    <chr> <int>
##  1 get     153
##  2 love    137
##  3 know    124
##  4 time    106
##  5 wanna   102
##  6 never   101
##  7 oh       88
##  8 yeah     88
##  9 la       85
## 10 got      82
## # … with 969 more rows

How about per song?

tidy_lyrics %>%
  count(song_name, word, sort = TRUE)

## # A tibble: 2,206 × 3
##    song_name                       word           n
##    <chr>                           <chr>      <int>
##  1 Saturday Night Divas            get           91
##  2 Spice Up Your Life              la            64
##  3 If U Can't Dance                dance         60
##  4 Holler                          holler        48
##  5 Never Give Up on the Good Times never         47
##  6 Move Over                       generation    41
##  7 Saturday Night Divas            deeper        41
##  8 Move Over                       yeah          39
##  9 Something Kinda Funny           got           39
## 10 Never Give Up on the Good Times give          38
## # … with 2,196 more rows
…
Explore topic model results

To explore more deeply, we can tidy() the topic model results to get a dataframe that we can compute on. There are two possible outputs for this topic model, the "beta" matrix of topic-word probabilities and the "gamma" matrix of document-topic probabilities. Let’s start with the first.

word_topics <- tidy(topic_model, matrix = "beta")
word_topics

## # A tibble: 3,916 × 3
##    topic term        beta
##    <int> <chr>      <dbl>
##  1     1 achieve 1.66e- 3
##  2     2 achieve 2.14e-21
##  3     3 achieve 1.75e-49
##  4     4 achieve 5.18e-36
##  5     1 baby    1.20e- 2
##  6     2 baby    1.44e- 2
##  7     3 baby    1.29e-15
##  8     4 baby    5.04e- 3
##  9     1 back    1.94e- 2
## 10     2 back    5.49e- 4
## # … with 3,906 more rows
…
What about the other matrix? We also need to pass in the document_names.

song_topics <- tidy(topic_model,
  matrix = "gamma",
  document_names = rownames(lyrics_sparse)
)
song_topics

## # A tibble: 124 × 3
##    document                   topic    gamma
##    <chr>                      <int>    <dbl>
##  1 2 Become 1                     1 0.714   
##  2 Denying                        1 0.00163 
##  3 Do It                          1 0.996   
##  4 Get Down With Me               1 0.947   
##  5 Goodbye                        1 0.00106 
##  6 Holler                         1 0.00103 
##  7 If U Can't Dance               1 0.000942
##  8 If You Wanna Have Some Fun     1 0.00722 
##  9 Last Time Lover                1 0.998   
## 10 Let Love Lead the Way          1 0.00175 
## # … with 114 more rows
…
