Resampling to understand gender in #TidyTuesday art history data | Julia Silge
…
This says that with a single linear model, we see evidence that men are allotted larger areas and the area per work is increasing with time. (It’s modeling a linear relationship, which is probably not 100% right; we could try options like a low-rank spline for the relationship between area and year if we wanted to check that out.)

Often with questions like this, I prefer to use resampling instead of fitting a model one single time, so I can get a better understanding of what’s going with the relationships. We can start by creating a set of bootstrap resamples:

library(tidymodels)
set.seed(123)
folds <- bootstraps(works_subset, times = 1e3)
folds

## # Bootstrap sampling
## # A tibble: 1,000 × 2
##    splits             id
##    <list>             <chr>
##  1 <split [2245/825]> Bootstrap0001
##  2 <split [2245/821]> Bootstrap0002
##  3 <split [2245/827]> Bootstrap0003
##  4 <split [2245/841]> Bootstrap0004
##  5 <split [2245/808]> Bootstrap0005
##  6 <split [2245/823]> Bootstrap0006
##  7 <split [2245/833]> Bootstrap0007
##  8 <split [2245/825]> Bootstrap0008
##  9 <split [2245/823]> Bootstrap0009
## 10 <split [2245/840]> Bootstrap0010
## # … with 990 more rows
…
linear_coefs <-
  folds %>%
  mutate(
    model = map(
      splits,
      ~ lm(area_of_work_in_book ~ artist_gender + publication_year,
           data = analysis(.x))
    ),
    coef_info = map(model, tidy))

linear_coefs

## # Bootstrap sampling
## # A tibble: 1,000 × 4
##    splits             id            model  coef_info
##    <list>             <chr>         <list> <list>
##  1 <split [2245/825]> Bootstrap0001 <lm>   <tibble [3 × 5]>
##  2 <split [2245/821]> Bootstrap0002 <lm>   <tibble [3 × 5]>
##  3 <split [2245/827]> Bootstrap0003 <lm>   <tibble [3 × 5]>
##  4 <split [2245/841]> Bootstrap0004 <lm>   <tibble [3 × 5]>
##  5 <split [2245/808]> Bootstrap0005 <lm>   <tibble [3 × 5]>
##  6 <split [2245/823]> Bootstrap0006 <lm>   <tibble [3 × 5]>
##  7 <split [2245/833]> Bootstrap0007 <lm>   <tibble [3 × 5]>
##  8 <split [2245/825]> Bootstrap0008 <lm>   <tibble [3 × 5]>
##  9 <split [2245/823]> Bootstrap0009 <lm>   <tibble [3 × 5]>
## 10 <split [2245/840]> Bootstrap0010 <lm>   <tibble [3 × 5]>
## # … with 990 more rows

How did this turn out?

linear_coefs %>%
  unnest(coef_info)

## # A tibble: 3,000 × 8
##    splits             id          model term  estimate std.e…¹ stati…²   p.value
##    <list>             <chr>       <lis> <chr>    <dbl>   <dbl>   <dbl>     <dbl>
##  1 <split [2245/825]> Bootstrap0… <lm>  (Int… -5.41    3.45e-1  -15.7  1.18e- 52
##  2 <split [2245/825]> Bootstrap0… <lm>  arti…  0.0270  1.28e-2    2.11 3.47e-  2
##  3 <split [2245/825]> Bootstrap0… <lm>  publ…  0.00374 1.72e-4   21.8  1.67e- 95
##  4 <split [2245/821]> Bootstrap0… <lm>  (Int… -5.97    3.35e-1  -17.8  1.63e- 66
##  5 <split [2245/821]> Bootstrap0… <lm>  arti…  0.0574  1.33e-2    4.32 1.62e-  5
##  6 <split [2245/821]> Bootstrap0… <lm>  publ…  0.00402 1.67e-4   24.0  1.06e-113
##  7 <split [2245/827]> Bootstrap0… <lm>  (Int… -5.43    3.27e-1  -16.6  1.22e- 58
##  8 <split [2245/827]> Bootstrap0… <lm>  arti…  0.0516  1.21e-2    4.26 2.13e-  5
##  9 <split [2245/827]> Bootstrap0… <lm>  publ…  0.00375 1.63e-4   23.0  1.92e-105
## 10 <split [2245/841]> Bootstrap0… <lm>  (Int… -5.80    3.39e-1  -17.1  1.14e- 61
## # … with 2,990 more rows, and abbreviated variable names ¹​std.error, ²​statistic
…
