Predict #TidyTuesday NYT bestsellers | Julia Silge
…
Which authors have been on the list the most?

nyt_titles %>%
  group_by(author) %>%
  summarise(
    n = n(),
    total_weeks = median(total_weeks)
  ) %>%
  arrange(-n)

# A tibble: 2,206 × 3
   author                 n total_weeks
   <chr>              <int>       <dbl>
 1 Danielle Steel       116         5.5
 2 Stuart Woods          63         2  
 3 Stephen King          54        15  
 4 Robert B. Parker      47         4  
 5 John Sandford         44         5  
 6 David Baldacci        42        10  
 7 Dean Koontz           40         5.5
 8 Mary Higgins Clark    40         9  
 9 Sandra Brown          40         4  
10 Nora Roberts          38         5  
# … with 2,196 more rows
…
