What tokens are used more vs. less in #TidyTuesday place names? | Julia Silge
…
How many times is each place name used? Let’s restrict our analysis to place names used more than one time.

place_counts <- 
  us_place_names |> 
  count(feature_name, sort = TRUE) |> 
  filter(n > 1)

place_counts

## # A tibble: 20,974 × 2
##    feature_name       n
##    <chr>          <int>
##  1 Midway           215
##  2 Fairview         210
##  3 Oak Grove        169
##  4 Five Points      149
##  5 Riverside        127
##  6 Pleasant Hill    123
##  7 Mount Pleasant   119
##  8 Bethel           108
##  9 Centerville      107
## 10 New Hope         105
## # ℹ 20,964 more rows
…
Looks like there are lots of place names that include “wood”, and subwords like “historical”, “Estates”, and “Heights” are less common. What are some of these names like?

place_train |> 
  filter(str_detect(feature_name, "Estates|wood"))

## # A tibble: 640 × 2
##    feature_name           n
##    <chr>              <int>
##  1 Allwood                3
##  2 Basswood               3
##  3 Bear Creek Estates     3
##  4 Belair Estates         3
##  5 Belmont Estates        3
##  6 Bingham Estates        3
##  7 Birchwood Estates      3
##  8 Boulevard Estates      3
##  9 Braddock Estates       3
## 10 Brandywine Estates     3
## # ℹ 630 more rows
…
