The Bechdel test and the X-Mansion with tidymodels and #TidyTuesday | Julia Silge
…
We’re going to use three of the datasets from this week.

library(tidyverse)

character_visualization <- readr::read_csv("https://raw.githubusercontent.com/rfordatascience/tidytuesday/master/data/2020/2020-06-30/character_visualization.csv")
xmen_bechdel <- readr::read_csv("https://raw.githubusercontent.com/rfordatascience/tidytuesday/master/data/2020/2020-06-30/xmen_bechdel.csv")
locations <- readr::read_csv("https://raw.githubusercontent.com/rfordatascience/tidytuesday/master/data/2020/2020-06-30/locations.csv")

The character_visualization dataset counts up each time one of the main 25 character speaks, thinks, is involved in narrative statements, or is depicted total.

character_visualization

## # A tibble: 9,800 x 7
##    issue costume character                     speech thought narrative depicted
##    <dbl> <chr>   <chr>                          <dbl>   <dbl>     <dbl>    <dbl>
##  1    97 Costume Editor narration                   0       0         0        0
##  2    97 Costume Omnipresent narration              0       0         0        0
##  3    97 Costume Professor X = Charles Xavier…      0       0         0        0
##  4    97 Costume Wolverine = Logan                  7       0         0       10
##  5    97 Costume Cyclops = Scott Summers           24       3         0       23
##  6    97 Costume Marvel Girl/Phoenix = Jean G…      0       0         0        0
##  7    97 Costume Storm = Ororo Munroe              11       0         0        9
##  8    97 Costume Colossus = Peter (Piotr) Ras…      9       0         0       17
##  9    97 Costume Nightcrawler = Kurt Wagner        10       0         0       17
## 10    97 Costume Banshee = Sean Cassidy             0       0         0        5
## # … with 9,790 more rows

Let’s aggregate this dataset to the issue level so we can build models using per-issue differences in speaking, thinking, narrative, and total depictions.

per_issue <- character_visualization %>%
  group_by(issue) %>%
  summarise(across(speech:depicted, sum)) %>%
  ungroup()

per_issue

## # A tibble: 196 x 5
##    issue speech thought narrative depicted
##    <dbl>  <dbl>   <dbl>     <dbl>    <dbl>
##  1    97    146      13        71      168
##  2    98    172       9        29      180
##  3    99    105      22        29      124
##  4   100    141      28         7      122
##  5   101    158      27        58      191
##  6   102     78      27        33      133
##  7   103     91       6        25      121
##  8   104    142      15        25      165
##  9   105     83      12        24      128
## 10   106     20       6        20       16
## # … with 186 more rows
…
