Predicting injuries for Chicago traffic crashes | Julia Silge
…
crash

## # A tibble: 207,422 x 14
##    injuries crash_date          crash_hour report_type num_units
##    <chr>    <dttm>                   <int> <chr>           <int>
##  1 none     2021-01-03 03:00:00          3 ON SCENE            3
##  2 none     2021-01-03 01:37:00          1 ON SCENE            1
##  3 none     2021-01-03 01:25:00          1 ON SCENE            2
##  4 none     2021-01-03 01:01:00          1 ON SCENE            2
##  5 injuries 2021-01-03 00:45:00          0 ON SCENE            2
##  6 injuries 2021-01-03 00:10:00          0 ON SCENE            2
##  7 none     2021-01-03 00:10:00          0 NOT ON SCEâ€¦         2
##  8 none     2021-01-02 23:30:00         23 NOT ON SCEâ€¦         2
##  9 injuries 2021-01-02 22:46:00         22 NOT ON SCEâ€¦         2
## 10 none     2021-01-02 22:40:00         22 ON SCENE            2
## # â€¦ with 207,412 more rows, and 9 more variables: posted_speed_limit <int>,
## #   weather_condition <chr>, lighting_condition <chr>,
## #   roadway_surface_cond <chr>, first_crash_type <chr>, trafficway_type <chr>,
## #   prim_contributory_cause <chr>, latitude <dbl>, longitude <dbl>
…
