Text predictors for #TidyTuesday chocolate ratings | Julia Silge
…
What are the most common words used to describe the most memorable characteristics of each chocolate sample?

library(tidytext)

tidy_chocolate <-
  chocolate %>%
  unnest_tokens(word, most_memorable_characteristics)

tidy_chocolate %>%
  count(word, sort = TRUE)

## # A tibble: 547 × 2
##    word        n
##    <chr>   <int>
##  1 cocoa     419
##  2 sweet     318
##  3 nutty     278
##  4 fruit     273
##  5 roasty    228
##  6 mild      226
##  7 sour      208
##  8 earthy    199
##  9 creamy    189
## 10 intense   178
## # … with 537 more rows
…
Next, let’s set up our feature engineering. We will need to transform our text data into features useful for our model by tokenizing and computing (in this case) tf-idf.

library(textrecipes)

choco_rec <-
  recipe(rating ~ most_memorable_characteristics, data = choco_train) %>%
  step_tokenize(most_memorable_characteristics) %>%
  step_tokenfilter(most_memorable_characteristics, max_tokens = 100) %>%
  step_tfidf(most_memorable_characteristics)

## just to check this works
prep(choco_rec) %>% bake(new_data = NULL)

## # A tibble: 1,896 × 101
##    rating tfidf_most_memor… tfidf_most_memor… tfidf_most_memor… tfidf_most_memo…
##     <dbl>             <dbl>             <dbl>             <dbl>            <dbl>
##  1   3                 0                    0                 0                0
##  2   2.75              0                    0                 0                0
##  3   3                 0                    0                 0                0
##  4   3                 0                    0                 0                0
##  5   2.75              0                    0                 0                0
##  6   3                 1.38                 0                 0                0
##  7   2.75              0                    0                 0                0
##  8   2.5               0                    0                 0                0
##  9   2.75              0                    0                 0                0
## 10   3                 0                    0                 0                0
## # … with 1,886 more rows, and 96 more variables:
## #   tfidf_most_memorable_characteristics_base <dbl>,
## #   tfidf_most_memorable_characteristics_basic <dbl>,
## #   tfidf_most_memorable_characteristics_berry <dbl>,
## #   tfidf_most_memorable_characteristics_bitter <dbl>,
## #   tfidf_most_memorable_characteristics_black <dbl>,
## #   tfidf_most_memorable_characteristics_bland <dbl>, …
…
