Use resampling to understand #TidyTuesday drought in TX | Julia Silge
…
Since I am from Texas (and it has a nice number of counties), let’s restrict our analysis to only counties in Texas:

library(tidyverse)

drought_raw <- read_csv('https://raw.githubusercontent.com/rfordatascience/tidytuesday/master/data/2022/2022-06-14/drought-fips.csv')

drought <- drought_raw %>%
  filter(State == "TX", lubridate::year(date) == 2021) %>%
  group_by(GEOID = FIPS) %>%
  summarise(DSCI = mean(DSCI)) %>%
  ungroup()

drought

## # A tibble: 254 × 2
##    GEOID  DSCI
##    <chr> <dbl>
##  1 48001  68.7
##  2 48003 244.
##  3 48005  81
##  4 48007  46.8
##  5 48009  62.1
##  6 48011 138.
##  7 48013  84.9
##  8 48015  40.1
##  9 48017 253.
## 10 48019 114.
## # … with 244 more rows
…
What do the predictions for household income look like?

collect_predictions(drought_res)

## # A tibble: 254 × 5
##    id      .pred  .row estimate .config
##    <chr>   <dbl> <int>    <dbl> <chr>
##  1 Fold01 56293.     1    56784 Preprocessor1_Model1
##  2 Fold01 53812.     2    41846 Preprocessor1_Model1
##  3 Fold01 51421.     6    61543 Preprocessor1_Model1
##  4 Fold01 56358.    10    44507 Preprocessor1_Model1
##  5 Fold01 57224.    11    41568 Preprocessor1_Model1
##  6 Fold01 57212.    17    41170 Preprocessor1_Model1
##  7 Fold01 55963.    18    40946 Preprocessor1_Model1
##  8 Fold01 54367.    23    40083 Preprocessor1_Model1
##  9 Fold01 56017.    24    47301 Preprocessor1_Model1
## 10 Fold01 51866.    37    61915 Preprocessor1_Model1
## # … with 244 more rows
Mapping modeling results

We can join these out-of-sample predictions back up with our original data, and compute any 
metrics we would like to, like RMSE, for all the counties in Texas.

drought_rmse <-
    drought_sf %>%
    mutate(.row = row_number()) %>%
    left_join(collect_predictions(drought_res)) %>%
    group_by(GEOID) %>%
    rmse(estimate, .pred) %>%
    select(GEOID, .estimate)
drought_rmse

## # A tibble: 254 × 2
##    GEOID .estimate
##    <chr>     <dbl>
##  1 48001    10604.
##  2 48003    28840.
##  3 48005     6550.
##  4 48007     7858.
##  5 48009     8149.
##  6 48011    17246.
##  7 48013     3856.
##  8 48015     7263.
##  9 48017     7160.
## 10 48019     6730.
## # … with 244 more rows
…
