Measuring Gobbledygook | Julia Silge
…
The data column contains the original untidied text and the tidied column contains the tidied text, organized with each sentence on its own row; both are list-columns. Now let’s unnest this so we get rid of the list-columns and have sentences in their own rows.

tidybooks <- tidybooks %>%
    unnest(tidied)

tidybooks

## # A tibble: 64,716 x 3
##                   title gutenberg_id
##                   <chr>        <int>
##  1 Anne of Green Gables           45
##  2 Anne of Green Gables           45
##  3 Anne of Green Gables           45
##  4 Anne of Green Gables           45
##  5 Anne of Green Gables           45
##  6 Anne of Green Gables           45
##  7 Anne of Green Gables           45
##  8 Anne of Green Gables           45
##  9 Anne of Green Gables           45
## 10 Anne of Green Gables           45
## # ... with 64,706 more rows, and 1 more variables: sentence <chr>
…
Well, my last name is actually two syllables, but most human beings get that wrong too, so there we go.

Now let’s start counting the syllables in all the words in our books. Let’s use unnest_tokens again to extract all the single words from the sentences; this time we will set drop = FALSE so we keep the sentences for counting purposes. Let’s add a new column that will count the syllables for each word. (This takes a bit to run on my fairly speedy/new desktop; that function for counting syllables is not built for speed.)

tidybooks <- tidybooks %>%
    unnest_tokens(word, sentence, drop = FALSE) %>%
    rowwise() %>%
    mutate(n_syllables = count_syllables(word)) %>%
    ungroup()

tidybooks %>%
    select(word, n_syllables)

## # A tibble: 1,070,066 x 2
##          word n_syllables
##         <chr>       <dbl>
##  1       anne           1
##  2         of           1
##  3      green           1
##  4     gables           2
##  5         by           1
##  6       lucy           2
##  7       maud           1
##  8 montgomery           4
##  9      table           2
## 10         of           1
## # ... with 1,070,056 more rows
…
