Understand your models with #TidyTuesday inequality in student debt | Julia Silge
…
Here is the code I used in the video, for those who prefer reading instead of or in addition to video.

Explore the data

Our modeling goal is to understand how 
student debt and inequality has been changing over time. We can build a model to understand the relationship between student debt, race, and year.

library(tidyverse)
student_debt <- read_csv("https://raw.githubusercontent.com/rfordatascience/tidytuesday/master/data/2021/2021-02-09/student_debt.csv")

student_debt

## # A tibble: 30 x 4
##     year race     loan_debt loan_debt_pct
##    <dbl> <chr>        <dbl>         <dbl>
##  1  2016 White       11108.         0.337
##  2  2016 Black       14225.         0.418
##  3  2016 Hispanic     7494.         0.219
##  4  2013 White        8364.         0.285
##  5  2013 Black       10303.         0.412
##  6  2013 Hispanic     3177.         0.157
##  7  2010 White        8042.         0.280
##  8  2010 Black        9510.         0.321
##  9  2010 Hispanic     3089.         0.144
## 10  2007 White        5264.         0.197
## # … with 20 more rows
…
However, I find it hard to look at model coefficients like this with an interaction term and know what it is going on! This is also true of many kinds of models where the model output doesn’t give you a lot of insight into what it is doing.

Explore results

Instead, 
we can use augment() to explore our model in a situation like this. The augment() function adds columns for predictions given data. To do that, we need some data, so let’s make some up.

new_points <- crossing(
  race = c("Black", "Hispanic", "White"),
  year = 1990:2020
)

new_points

## # A tibble: 93 x 2
##    race   year
##    <chr> <int>
##  1 Black  1990
##  2 Black  1991
##  3 Black  1992
##  4 Black  1993
##  5 Black  1994
##  6 Black  1995
##  7 Black  1996
##  8 Black  1997
##  9 Black  1998
## 10 Black  1999
## # … with 83 more rows
…
